"2017-01-30 12:17:47",0.06454345
"2017-01-30 12:17:59",0.07470601
"2017-01-30 12:18:24",0.062101185
"2017-01-30 12:18:36",0.05338712
"2017-01-30 12:19:00",0.053775687
"2017-01-30 12:19:12",0.053631872
"2017-01-30 12:19:37",0.053700604
"2017-01-30 12:19:49",0.052413285
"2017-01-30 12:20:13",0.05312598
"2017-01-30 12:20:37",0.05377216
"2017-01-30 12:20:50",0.0537786
"2017-01-30 12:21:14",0.05373847
"2017-01-30 12:21:26",0.052645784
"2017-01-30 12:21:50",0.05349118
"2017-01-30 12:22:02",0.053449295
"2017-01-30 12:22:27",0.053906173
"2017-01-30 12:22:39",0.0
"2017-01-31 12:09:01",0.05663854
"2017-01-31 12:09:13",0.05687339
"2017-01-31 12:09:37",0.05760313
"2017-01-31 12:09:50",0.0651094
"2017-01-31 12:10:02",0.06545497
"2017-01-31 12:10:14",0.065703936
"2017-01-31 12:10:38",0.0659304
"2017-01-31 12:10:51",0.06593902
"2017-01-31 12:11:03",0.065974735
"2017-01-31 12:11:15",0.066257946
"2017-01-31 12:11:39",0.06603482
"2017-01-31 12:11:51",0.06199978
"2017-01-31 12:12:04",0.0
"2017-02-01 12:08:14",0.0011318572
"2017-02-01 12:08:26",0.06295171
"2017-02-01 12:08:38",0.059460774
"2017-02-01 12:09:03",0.045933895
"2017-02-01 12:09:27",0.04433374
"2017-02-01 12:09:51",0.047622923
"2017-02-01 12:10:04",0.043988913
"2017-02-01 12:10:28",0.04454607
"2017-02-01 12:10:52",0.044389594
"2017-02-01 12:11:17",0.0
"2017-02-02 12:18:02",0.05116738
"2017-02-02 12:18:14",0.05786567
"2017-02-02 12:18:38",0.055862512
"2017-02-02 12:18:51",0.05432748
"2017-02-02 12:19:15",0.05948193
"2017-02-02 12:19:27",0.06086283
"2017-02-02 12:19:39",0.058286447
"2017-02-02 12:20:04",0.059815377
"2017-02-02 12:20:16",0.05976018
"2017-02-02 12:20:28",0.059982903
"2017-02-02 12:20:52",0.060915783
"2017-02-02 12:21:05",0.05820817
"2017-02-02 12:21:29",0.05649285
"2017-02-02 12:21:41",0.0
"2017-02-03 12:12:26",0.060115393
"2017-02-03 12:12:38",0.059530016
"2017-02-03 12:12:50",0.056604
"2017-02-03 12:13:14",0.056266442
"2017-02-03 12:13:27",0.056454018
"2017-02-03 12:13:51",0.051937267
"2017-02-03 12:14:15",0.05216256
"2017-02-03 12:14:28",0.053202577
"2017-02-03 12:14:52",0.0
"2017-02-06 12:17:38",0.054425023
"2017-02-06 12:17:50",0.05413362
"2017-02-06 12:18:15",0.051105455
"2017-02-06 12:18:39",0.0461473
"2017-02-06 12:18:51",0.045886166
"2017-02-06 12:19:16",0.045929
"2017-02-06 12:19:40",0.045653142
"2017-02-06 12:20:04",0.04319206
"2017-02-06 12:20:29",0.043466497
"2017-02-06 12:20:53",0.044533234
"2017-02-06 12:21:17",0.04522082
"2017-02-06 12:21:30",0.0
"2017-02-07 12:16:36",0.044762213
"2017-02-07 12:17:01",0.044563517
"2017-02-07 12:17:25",0.044649925
"2017-02-07 12:17:49",0.04478277
"2017-02-07 12:18:02",0.045866065
"2017-02-07 12:18:26",0.046860028
"2017-02-07 12:18:50",0.046675604
"2017-02-07 12:19:15",0.04493217
"2017-02-07 12:19:39",0.0
"2017-02-08 12:15:18",0.054949164
"2017-02-08 12:15:30",0.055533808
"2017-02-08 12:15:54",0.03835089
"2017-02-08 12:16:19",0.04325169
"2017-02-08 12:16:43",0.04332426
"2017-02-08 12:17:07",0.0434279
"2017-02-08 12:17:32",0.036197137
"2017-02-08 12:18:08",0.0
"2017-02-09 12:15:44",0.04363894
"2017-02-09 12:16:08",0.05158146
"2017-02-09 12:16:20",0.05635188
"2017-02-09 12:16:45",0.05606821
"2017-02-09 12:16:57",0.056350913
"2017-02-09 12:17:21",0.05610738
"2017-02-09 12:17:34",0.05570743
"2017-02-09 12:17:58",0.055962306
"2017-02-09 12:18:10",0.05326164
"2017-02-09 12:18:35",0.0
"2017-02-10 12:15:41",0.04511001
"2017-02-10 12:16:05",0.04466368
"2017-02-10 12:16:30",0.043916397
"2017-02-10 12:16:54",0.043800693
"2017-02-10 12:17:06",0.043979995
"2017-02-10 12:17:31",0.0
"2017-02-10 12:21:11",0.004248719
"2017-02-10 12:25:03",0.0
"2017-02-13 12:39:48",0.05377401
"2017-02-13 12:40:00",0.0
"2017-02-13 12:40:13",0.041535
"2017-02-13 12:40:25",0.04382301
"2017-02-13 12:40:49",0.04362674
"2017-02-13 12:41:13",0.042767573
"2017-02-13 12:41:38",0.040521458
"2017-02-13 12:42:02",0.0
"2017-02-14 12:45:31",0.039003532
"2017-02-14 12:45:55",0.042512946
"2017-02-14 12:46:07",0.0
"2017-02-14 12:46:19",0.042650063
"2017-02-14 12:46:32",0.042719286
"2017-02-14 12:46:56",0.04253756
"2017-02-14 12:47:20",0.04260293
"2017-02-14 12:47:45",0.042633858
"2017-02-14 12:48:09",0.042494036
"2017-02-14 12:48:34",0.0
"2017-02-15 12:07:55",1.5259182e-05
"2017-02-15 12:08:07",0.0
"2017-02-15 12:08:19",0.051474907
"2017-02-15 12:08:43",0.051370565
"2017-02-15 12:08:56",0.050907917
"2017-02-15 12:09:20",0.05090499
"2017-02-15 12:09:32",0.05113297
"2017-02-15 12:09:57",0.051127303
"2017-02-15 12:10:21",0.050141312
"2017-02-15 12:10:33",0.05031624
"2017-02-15 12:10:57",0.0505736
"2017-02-15 12:11:22",0.0503317
"2017-02-15 12:11:34",0.05012053
"2017-02-15 12:11:58",0.0
"2017-02-16 12:08:21",0.04067305
"2017-02-16 12:08:46",0.041419655
"2017-02-16 12:09:10",0.039783407
"2017-02-16 12:09:34",0.038580816
"2017-02-16 12:09:59",0.03945038
"2017-02-16 12:10:23",0.040834688
"2017-02-16 12:10:47",0.0
"2017-02-17 12:11:52",0.050590698
"2017-02-17 12:12:04",0.05016173
"2017-02-17 12:12:29",0.047374576
"2017-02-17 12:12:53",0.04712264
"2017-02-17 12:13:05",0.049334314
"2017-02-17 12:13:29",0.04654314
"2017-02-17 12:13:54",0.046132945
"2017-02-17 12:14:18",0.0
"2017-02-17 12:17:58",0.004172146
"2017-02-17 12:21:49",0.0
"2017-02-20 12:09:06",0.056148335
"2017-02-20 12:09:31",0.056258906
"2017-02-20 12:09:43",0.056215186
"2017-02-20 12:10:07",0.056205735
"2017-02-20 12:10:19",0.05626277
"2017-02-20 12:10:44",0.05626113
"2017-02-20 12:10:56",0.055882327
"2017-02-20 12:11:08",0.055615146
"2017-02-20 12:11:32",0.055942718
"2017-02-20 12:11:45",0.05617962
"2017-02-20 12:12:09",0.0
"2017-02-22 12:10:00",0.0521079
"2017-02-22 12:10:12",0.05212738
"2017-02-22 12:10:37",0.051595755
"2017-02-22 12:10:49",0.05114909
"2017-02-22 12:11:13",0.05009854
"2017-02-22 12:11:38",0.048358772
"2017-02-22 12:11:50",0.05069503
"2017-02-22 12:12:14",0.051414415
"2017-02-22 12:12:38",0.0
"2017-02-23 12:11:54",0.048058197
"2017-02-23 12:12:18",0.047949053
"2017-02-23 12:12:43",0.04715777
"2017-02-23 12:12:55",0.04755878
"2017-02-23 12:13:19",0.046674803
"2017-02-23 12:13:44",0.04427552
"2017-02-23 12:14:08",0.042077474
"2017-02-23 12:14:32",0.044613633
"2017-02-23 12:14:57",0.0
"2017-02-24 12:18:59",0.04891323
"2017-02-24 12:19:24",0.048920315
"2017-02-24 12:19:36",0.04708418
"2017-02-24 12:20:00",0.041835193
"2017-02-24 12:20:25",0.041667834
"2017-02-24 12:20:49",0.0379748
"2017-02-24 12:21:26",0.0
"2017-02-24 12:24:42",0.0043017874
"2017-02-24 12:25:30",0.019840984
"2017-02-24 12:26:31",0.0
