"2017-01-30 07:58:52",ON
"2017-01-30 07:58:53",OFF
"2017-01-31 08:08:53",ON
"2017-01-31 08:08:54",OFF
"2017-02-01 08:06:54",ON
"2017-02-01 08:06:55",OFF
"2017-02-02 08:02:14",ON
"2017-02-02 08:02:15",OFF
"2017-02-03 07:58:19",ON
"2017-02-03 07:58:20",OFF
"2017-02-06 07:58:06",ON
"2017-02-06 07:58:07",OFF
"2017-02-07 07:59:47",ON
"2017-02-07 07:59:48",OFF
"2017-02-08 08:03:37",ON
"2017-02-08 08:03:38",OFF
"2017-02-09 08:01:47",ON
"2017-02-09 08:01:48",OFF
"2017-02-10 08:09:38",ON
"2017-02-10 08:09:39",OFF
"2017-02-13 08:07:08",ON
"2017-02-13 08:07:09",OFF
"2017-02-14 08:31:15",ON
"2017-02-14 08:31:16",OFF
"2017-02-15 08:17:34",ON
"2017-02-15 08:17:35",OFF
"2017-02-16 08:01:50",ON
"2017-02-16 08:01:51",OFF
"2017-02-17 07:59:49",ON
"2017-02-17 07:59:50",OFF
"2017-02-20 08:54:24",ON
"2017-02-20 08:54:25",OFF
"2017-02-21 08:04:29",ON
"2017-02-21 08:04:30",OFF
"2017-02-21 13:26:20",ON
"2017-02-21 13:26:21",OFF
"2017-02-22 08:07:17",ON
"2017-02-22 08:07:18",OFF
"2017-02-23 08:07:51",ON
"2017-02-23 08:07:52",OFF
"2017-02-24 08:11:50",ON
"2017-02-24 08:11:51",OFF
