"2017-01-30 12:56:40",350.0
"2017-01-30 12:56:41",1024.0
"2017-01-30 12:56:43",1024.0
"2017-01-30 12:56:55",569.0
"2017-01-30 12:56:56",930.0
"2017-01-30 12:56:57",1015.0
"2017-01-30 12:56:58",524.0
"2017-01-30 12:56:59",529.0
"2017-01-30 12:57:01",928.0
"2017-01-30 12:57:02",664.0
"2017-01-30 12:57:03",471.0
"2017-01-30 12:57:04",749.0
"2017-01-30 12:57:05",415.0
"2017-01-30 12:57:06",555.0
"2017-01-30 12:57:09",427.0
"2017-01-30 12:57:11",550.0
"2017-01-30 12:57:22",434.0
"2017-01-30 12:57:23",547.0
"2017-01-30 12:58:25",639.0
"2017-01-30 12:59:06",576.0
"2017-01-30 12:59:09",669.0
"2017-01-30 12:59:10",582.0
"2017-01-30 13:00:27",446.0
"2017-01-30 13:00:28",554.0
"2017-01-30 13:00:29",459.0
"2017-01-30 13:00:30",556.0
"2017-01-30 13:01:02",374.0
"2017-01-30 13:01:09",459.0
"2017-01-30 13:01:12",542.0
"2017-01-30 13:06:34",379.0
"2017-01-30 13:06:35",576.0
"2017-01-30 13:07:25",659.0
"2017-01-30 13:08:27",570.0
"2017-01-30 13:08:28",558.0
"2017-01-30 13:08:38",537.0
"2017-01-30 13:08:39",735.0
"2017-01-30 13:10:37",559.0
"2017-01-30 13:10:38",647.0
"2017-01-30 13:12:01",254.0
"2017-01-30 13:12:02",764.0
"2017-01-30 13:12:03",630.0
"2017-01-30 13:12:18",713.0
"2017-01-30 13:13:21",797.0
"2017-01-30 13:13:26",695.0
"2017-01-30 13:13:50",595.0
"2017-01-30 13:13:51",247.0
"2017-01-30 13:13:52",309.0
"2017-01-30 13:13:54",443.0
"2017-01-30 13:21:58",261.0
"2017-01-30 13:21:59",758.0
"2017-01-30 13:22:14",574.0
"2017-01-30 13:22:24",816.0
"2017-01-30 13:25:15",650.0
"2017-01-30 13:25:16",531.0
"2017-01-30 13:25:17",652.0
"2017-01-30 13:25:18",664.0
"2017-01-30 13:25:45",516.0
"2017-01-30 13:25:49",736.0
"2017-01-30 13:27:15",617.0
"2017-01-30 13:27:16",721.0
"2017-01-30 13:27:26",600.0
"2017-01-30 13:27:31",689.0
"2017-01-30 13:29:39",453.0
"2017-01-30 13:29:41",352.0
"2017-01-30 13:29:42",454.0
"2017-01-30 13:29:56",352.0
"2017-01-30 13:30:00",436.0
"2017-01-30 13:30:07",418.0
"2017-01-30 13:30:08",598.0
"2017-01-30 13:30:09",699.0
"2017-01-30 13:30:10",511.0
"2017-01-30 13:30:11",328.0
"2017-01-30 13:30:12",507.0
"2017-01-30 13:30:13",373.0
"2017-01-30 13:30:18",456.0
"2017-01-30 13:30:31",360.0
"2017-01-30 13:30:33",455.0
"2017-01-30 13:32:32",354.0
"2017-01-30 13:32:36",232.0
"2017-01-30 13:32:37",315.0
"2017-01-30 13:32:38",461.0
"2017-01-30 13:32:53",542.0
"2017-01-30 13:33:29",372.0
"2017-01-30 13:33:30",346.0
"2017-01-30 13:33:31",197.0
"2017-01-30 13:33:39",449.0
"2017-01-30 13:33:40",1024.0
"2017-01-30 13:33:41",217.0
"2017-01-30 13:33:43",298.0
"2017-01-30 13:33:45",423.0
"2017-01-30 13:33:46",307.0
"2017-01-30 13:33:49",397.0
"2017-01-30 13:33:53",388.0
"2017-01-30 13:34:01",471.0
"2017-01-30 13:36:17",378.0
"2017-01-30 13:36:19",246.0
"2017-01-30 13:36:20",627.0
"2017-01-30 13:37:11",712.0
"2017-01-30 13:37:22",631.0
"2017-01-30 13:37:23",542.0
"2017-01-30 13:37:24",628.0
"2017-01-30 13:37:30",662.0
"2017-01-30 13:38:39",743.0
"2017-01-30 13:40:17",606.0
"2017-01-30 13:41:18",687.0
"2017-01-30 13:42:19",406.0
"2017-01-30 13:42:20",560.0
"2017-01-30 13:43:45",646.0
"2017-01-30 13:45:20",491.0
"2017-01-30 13:45:23",676.0
"2017-01-30 13:45:25",759.0
"2017-01-30 13:45:28",521.0
"2017-01-30 13:45:29",518.0
"2017-01-30 13:45:30",601.0
"2017-01-30 13:45:31",212.0
"2017-01-30 13:45:32",300.0
"2017-01-30 13:45:33",623.0
"2017-01-30 13:45:34",540.0
"2017-01-30 13:45:42",328.0
"2017-01-30 13:45:44",410.0
"2017-01-30 13:46:03",295.0
"2017-01-30 13:46:13",377.0
"2017-01-30 13:46:15",488.0
"2017-01-30 13:46:20",321.0
"2017-01-30 13:46:22",462.0
"2017-01-30 13:46:38",345.0
"2017-01-30 13:50:08",248.0
"2017-01-30 13:50:10",460.0
"2017-01-30 13:50:13",516.0
"2017-01-30 13:50:14",236.0
"2017-01-31 12:52:13",993.0
"2017-01-31 12:52:14",956.0
"2017-01-31 12:52:15",1024.0
"2017-01-31 12:52:16",497.0
"2017-01-31 12:52:17",655.0
"2017-01-31 12:52:18",362.0
"2017-01-31 12:52:19",479.0
"2017-01-31 12:52:20",390.0
"2017-01-31 12:52:21",204.0
"2017-01-31 12:52:22",231.0
"2017-01-31 12:52:23",320.0
"2017-01-31 12:52:24",380.0
"2017-01-31 12:52:25",338.0
"2017-01-31 12:52:26",231.0
"2017-01-31 12:52:30",231.0
"2017-01-31 12:52:31",312.0
"2017-01-31 12:52:33",246.0
"2017-01-31 12:52:34",330.0
"2017-01-31 12:52:40",226.0
"2017-01-31 12:52:41",407.0
"2017-01-31 12:52:42",441.0
"2017-01-31 12:52:44",533.0
"2017-01-31 12:52:51",451.0
"2017-01-31 12:53:03",537.0
"2017-01-31 12:53:33",449.0
"2017-01-31 12:53:54",533.0
"2017-01-31 12:54:10",450.0
"2017-01-31 12:54:42",581.0
"2017-01-31 12:54:56",326.0
"2017-01-31 12:54:59",483.0
"2017-01-31 12:55:01",484.0
"2017-01-31 12:58:15",502.0
"2017-01-31 12:58:16",522.0
"2017-01-31 12:58:30",427.0
"2017-01-31 12:58:31",418.0
"2017-01-31 12:58:32",163.0
"2017-01-31 12:58:33",501.0
"2017-01-31 12:58:34",692.0
"2017-01-31 12:58:35",610.0
"2017-01-31 12:58:39",693.0
"2017-01-31 13:01:54",653.0
"2017-01-31 13:04:19",734.0
"2017-01-31 13:04:22",265.0
"2017-01-31 13:04:23",360.0
"2017-01-31 13:04:24",474.0
"2017-01-31 13:06:56",307.0
"2017-01-31 13:06:57",397.0
"2017-01-31 13:09:27",316.0
"2017-01-31 13:09:29",413.0
"2017-01-31 13:09:30",309.0
"2017-01-31 13:09:31",318.0
"2017-01-31 13:09:32",629.0
"2017-01-31 13:09:36",544.0
"2017-01-31 13:11:43",634.0
"2017-01-31 13:11:44",500.0
"2017-01-31 13:11:45",599.0
"2017-01-31 13:12:17",409.0
"2017-01-31 13:12:18",643.0
"2017-01-31 13:13:50",725.0
"2017-01-31 13:14:32",624.0
"2017-01-31 13:14:33",715.0
"2017-01-31 13:16:22",558.0
"2017-01-31 13:17:43",642.0
"2017-01-31 13:21:06",337.0
"2017-01-31 13:21:07",579.0
"2017-01-31 13:22:51",377.0
"2017-01-31 13:22:52",486.0
"2017-01-31 13:22:53",591.0
"2017-01-31 13:22:55",307.0
"2017-01-31 13:22:58",478.0
"2017-01-31 13:23:02",227.0
"2017-01-31 13:23:03",163.0
"2017-01-31 13:23:04",440.0
"2017-01-31 13:23:05",259.0
"2017-01-31 13:23:31",534.0
"2017-01-31 13:23:32",140.0
"2017-01-31 13:23:33",600.0
"2017-01-31 13:23:34",440.0
"2017-01-31 13:23:35",611.0
"2017-01-31 13:23:36",321.0
"2017-01-31 13:23:37",408.0
"2017-01-31 13:23:38",593.0
"2017-01-31 13:23:39",494.0
"2017-01-31 13:23:41",316.0
"2017-01-31 13:23:42",208.0
"2017-01-31 13:23:43",677.0
"2017-01-31 13:23:44",415.0
"2017-01-31 13:23:45",701.0
"2017-01-31 13:23:46",271.0
"2017-01-31 13:23:47",461.0
"2017-01-31 13:23:49",571.0
"2017-01-31 13:23:50",487.0
"2017-01-31 13:24:08",382.0
"2017-01-31 13:24:09",547.0
"2017-01-31 13:24:10",656.0
"2017-01-31 13:25:12",740.0
"2017-01-31 13:26:06",656.0
"2017-01-31 13:26:17",739.0
"2017-01-31 13:34:21",625.0
"2017-01-31 13:34:22",665.0
"2017-01-31 13:36:37",747.0
"2017-01-31 13:38:20",254.0
"2017-01-31 13:38:21",549.0
"2017-01-31 13:38:22",347.0
"2017-01-31 13:38:23",526.0
"2017-01-31 13:38:24",391.0
"2017-01-31 13:38:25",475.0
"2017-01-31 13:38:47",394.0
"2017-01-31 13:38:54",479.0
"2017-01-31 13:39:06",346.0
"2017-01-31 13:39:07",210.0
"2017-01-31 13:39:08",465.0
"2017-01-31 13:39:09",382.0
"2017-01-31 13:40:31",397.0
"2017-01-31 13:42:33",405.0
"2017-01-31 13:42:34",400.0
"2017-01-31 13:43:20",492.0
"2017-01-31 13:43:22",411.0
"2017-01-31 13:44:33",241.0
"2017-01-31 13:44:34",368.0
"2017-01-31 13:44:35",650.0
"2017-01-31 13:44:36",321.0
"2017-01-31 13:44:37",442.0
"2017-01-31 13:44:38",541.0
"2017-01-31 13:44:49",372.0
"2017-01-31 13:44:50",192.0
"2017-01-31 13:44:52",281.0
"2017-01-31 13:44:53",365.0
"2017-01-31 13:44:55",496.0
"2017-01-31 13:45:03",413.0
"2017-01-31 13:45:04",495.0
"2017-01-31 13:45:19",411.0
"2017-01-31 13:45:20",506.0
"2017-01-31 13:45:25",284.0
"2017-01-31 13:45:26",202.0
"2017-01-31 13:45:27",283.0
"2017-01-31 13:45:30",369.0
"2017-01-31 13:45:33",252.0
"2017-01-31 13:45:34",334.0
"2017-01-31 13:46:00",222.0
"2017-01-31 13:46:03",304.0
"2017-01-31 13:46:05",199.0
"2017-01-31 13:46:06",282.0
"2017-01-31 13:46:07",345.0
"2017-01-31 13:46:08",488.0
"2017-01-31 13:46:09",632.0
"2017-01-31 13:46:39",713.0
"2017-01-31 13:46:50",335.0
"2017-01-31 13:46:51",432.0
"2017-01-31 13:46:53",326.0
"2017-01-31 13:46:54",312.0
"2017-01-31 13:46:55",420.0
"2017-01-31 13:46:56",335.0
"2017-01-31 13:46:57",208.0
"2017-01-31 13:46:58",539.0
"2017-01-31 13:46:59",250.0
"2017-01-31 13:47:26",167.0
"2017-02-01 12:51:53",761.0
"2017-02-01 12:51:56",982.0
"2017-02-01 12:51:57",292.0
"2017-02-01 12:51:58",240.0
"2017-02-01 12:51:59",220.0
"2017-02-01 12:52:00",378.0
"2017-02-01 12:52:01",208.0
"2017-02-01 12:52:02",216.0
"2017-02-01 12:52:03",134.0
"2017-02-01 12:52:04",219.0
"2017-02-01 12:52:10",359.0
"2017-02-01 12:52:11",264.0
"2017-02-01 12:52:12",346.0
"2017-02-01 12:52:26",251.0
"2017-02-01 12:52:27",338.0
"2017-02-01 12:56:19",235.0
"2017-02-01 12:56:20",341.0
"2017-02-01 12:57:39",241.0
"2017-02-01 12:57:40",368.0
"2017-02-01 12:57:41",283.0
"2017-02-01 12:57:58",365.0
"2017-02-01 12:59:35",243.0
"2017-02-01 12:59:36",333.0
"2017-02-01 12:59:55",430.0
"2017-02-01 12:59:56",191.0
"2017-02-01 12:59:57",371.0
"2017-02-01 13:00:26",338.0
"2017-02-01 13:01:48",436.0
"2017-02-01 13:01:55",353.0
"2017-02-01 13:03:11",251.0
"2017-02-01 13:03:12",359.0
"2017-02-01 13:05:35",288.0
"2017-02-01 13:06:19",404.0
"2017-02-01 13:06:42",301.0
"2017-02-01 13:06:51",414.0
"2017-02-01 13:07:08",328.0
"2017-02-01 13:07:22",412.0
"2017-02-01 13:08:34",283.0
"2017-02-01 13:08:40",184.0
"2017-02-01 13:09:17",439.0
"2017-02-01 13:09:21",524.0
"2017-02-01 13:10:35",116.0
"2017-02-01 13:10:36",373.0
"2017-02-01 13:10:37",369.0
"2017-02-01 13:10:38",493.0
"2017-02-01 13:11:28",369.0
"2017-02-01 13:11:29",460.0
"2017-02-01 13:12:11",435.0
"2017-02-01 13:12:38",305.0
"2017-02-01 13:12:39",202.0
"2017-02-01 13:12:40",437.0
"2017-02-01 13:13:33",355.0
"2017-02-01 13:13:34",263.0
"2017-02-01 13:13:35",277.0
"2017-02-01 13:13:36",522.0
"2017-02-01 13:14:28",505.0
"2017-02-01 13:15:31",424.0
"2017-02-01 13:15:32",222.0
"2017-02-01 13:15:33",140.0
"2017-02-01 13:15:34",462.0
"2017-02-01 13:15:35",361.0
"2017-02-01 13:15:36",464.0
"2017-02-01 13:17:00",382.0
"2017-02-01 13:17:07",475.0
"2017-02-01 13:17:11",491.0
"2017-02-01 13:20:02",479.0
"2017-02-01 13:20:03",382.0
"2017-02-01 13:20:04",491.0
"2017-02-01 13:20:05",513.0
"2017-02-01 13:21:52",270.0
"2017-02-01 13:21:53",354.0
"2017-02-01 13:21:54",483.0
"2017-02-01 13:22:22",508.0
"2017-02-01 13:23:11",361.0
"2017-02-01 13:23:13",461.0
"2017-02-01 13:23:55",279.0
"2017-02-01 13:23:58",405.0
"2017-02-01 13:23:59",517.0
"2017-02-01 13:24:52",432.0
"2017-02-01 13:25:05",520.0
"2017-02-01 13:26:21",264.0
"2017-02-01 13:26:24",464.0
"2017-02-01 13:26:54",326.0
"2017-02-01 13:26:55",515.0
"2017-02-01 13:27:43",557.0
"2017-02-01 13:27:44",563.0
"2017-02-01 13:27:45",538.0
"2017-02-01 13:27:46",350.0
"2017-02-01 13:27:47",208.0
"2017-02-01 13:27:48",436.0
"2017-02-01 13:28:16",246.0
"2017-02-01 13:28:17",444.0
"2017-02-01 13:29:28",317.0
"2017-02-01 13:29:30",520.0
"2017-02-01 13:29:31",499.0
"2017-02-01 13:29:34",472.0
"2017-02-01 13:30:07",250.0
"2017-02-01 13:30:08",337.0
"2017-02-01 13:30:09",425.0
"2017-02-01 13:30:44",310.0
"2017-02-01 13:30:46",416.0
"2017-02-01 13:31:14",311.0
"2017-02-01 13:31:15",218.0
"2017-02-01 13:31:18",136.0
"2017-02-01 13:31:21",116.0
"2017-02-01 13:31:45",335.0
"2017-02-01 13:31:46",432.0
"2017-02-01 13:31:47",528.0
"2017-02-01 13:31:49",427.0
"2017-02-01 13:32:55",602.0
"2017-02-01 13:32:56",497.0
"2017-02-01 13:33:56",581.0
"2017-02-01 13:35:00",591.0
"2017-02-01 13:40:09",674.0
"2017-02-01 13:40:33",311.0
"2017-02-01 13:40:34",164.0
"2017-02-01 13:40:36",371.0
"2017-02-01 13:40:37",362.0
"2017-02-01 13:40:38",248.0
"2017-02-01 13:41:22",166.0
"2017-02-01 13:41:23",248.0
"2017-02-01 13:43:24",162.0
"2017-02-01 13:43:27",249.0
"2017-02-01 13:44:14",162.0
"2017-02-01 13:44:38",252.0
"2017-02-01 13:44:51",171.0
"2017-02-01 13:44:57",276.0
"2017-02-01 13:45:40",159.0
"2017-02-01 13:45:41",304.0
"2017-02-01 13:45:42",395.0
"2017-02-01 13:46:05",476.0
"2017-02-01 13:54:05",560.0
"2017-02-01 13:54:48",644.0
"2017-02-01 13:54:55",424.0
"2017-02-01 13:54:56",326.0
"2017-02-01 13:54:57",170.0
"2017-02-01 13:55:00",270.0
"2017-02-01 13:55:01",387.0
"2017-02-01 13:55:02",195.0
"2017-02-01 13:55:03",441.0
"2017-02-01 13:55:04",385.0
"2017-02-01 13:55:05",268.0
"2017-02-01 13:55:07",433.0
"2017-02-01 13:55:08",149.0
"2017-02-02 12:52:39",520.0
"2017-02-02 12:52:40",149.0
"2017-02-02 12:52:41",379.0
"2017-02-02 12:52:42",555.0
"2017-02-02 12:52:43",171.0
"2017-02-02 12:52:44",283.0
"2017-02-02 12:52:45",175.0
"2017-02-02 12:52:46",266.0
"2017-02-02 12:52:47",389.0
"2017-02-02 12:52:51",308.0
"2017-02-02 12:52:52",345.0
"2017-02-02 12:52:53",463.0
"2017-02-02 12:52:55",381.0
"2017-02-02 12:53:11",378.0
"2017-02-02 12:53:12",400.0
"2017-02-02 12:53:32",238.0
"2017-02-02 12:53:33",345.0
"2017-02-02 12:53:34",368.0
"2017-02-02 12:53:38",259.0
"2017-02-02 12:53:40",443.0
"2017-02-02 12:55:21",467.0
"2017-02-02 13:01:14",381.0
"2017-02-02 13:01:20",468.0
"2017-02-02 13:01:23",352.0
"2017-02-02 13:01:24",271.0
"2017-02-02 13:01:25",187.0
"2017-02-02 13:01:26",446.0
"2017-02-02 13:01:29",541.0
"2017-02-02 13:02:52",622.0
"2017-02-02 13:02:55",490.0
"2017-02-02 13:02:56",381.0
"2017-02-02 13:02:57",463.0
"2017-02-02 13:03:07",545.0
"2017-02-02 13:05:48",198.0
"2017-02-02 13:05:49",532.0
"2017-02-02 13:05:50",515.0
"2017-02-02 13:05:51",612.0
"2017-02-02 13:08:33",374.0
"2017-02-02 13:08:34",623.0
"2017-02-02 13:14:20",529.0
"2017-02-02 13:14:21",648.0
"2017-02-02 13:14:39",685.0
"2017-02-02 13:14:50",596.0
"2017-02-02 13:16:17",678.0
"2017-02-02 13:16:45",269.0
"2017-02-02 13:16:47",378.0
"2017-02-02 13:16:48",466.0
"2017-02-02 13:16:49",558.0
"2017-02-02 13:16:51",437.0
"2017-02-02 13:16:54",333.0
"2017-02-02 13:16:55",501.0
"2017-02-02 13:16:56",588.0
"2017-02-02 13:16:58",674.0
"2017-02-02 13:17:02",574.0
"2017-02-02 13:18:43",254.0
"2017-02-02 13:18:44",620.0
"2017-02-02 13:19:58",361.0
"2017-02-02 13:19:59",152.0
"2017-02-02 13:20:00",685.0
"2017-02-02 13:20:01",112.0
"2017-02-02 13:20:15",843.0
"2017-02-02 13:20:16",162.0
"2017-02-02 13:20:17",293.0
"2017-02-02 13:20:19",201.0
"2017-02-02 13:20:20",394.0
"2017-02-02 13:20:23",590.0
"2017-02-02 13:20:24",413.0
"2017-02-02 13:20:26",412.0
"2017-02-02 13:20:33",521.0
"2017-02-02 13:20:34",462.0
"2017-02-02 13:20:35",301.0
"2017-02-02 13:20:36",494.0
"2017-02-02 13:20:37",461.0
"2017-02-02 13:20:38",465.0
"2017-02-02 13:23:25",567.0
"2017-02-02 13:23:31",299.0
"2017-02-02 13:23:32",279.0
"2017-02-02 13:23:33",392.0
"2017-02-02 13:23:35",335.0
"2017-02-02 13:23:36",239.0
"2017-02-02 13:23:37",357.0
"2017-02-02 13:23:38",268.0
"2017-02-02 13:23:43",355.0
"2017-02-02 13:23:44",256.0
"2017-02-02 13:24:20",345.0
"2017-02-02 13:24:22",263.0
"2017-02-02 13:29:58",348.0
"2017-02-02 13:30:17",263.0
"2017-02-02 13:33:11",534.0
"2017-02-02 13:34:04",631.0
"2017-02-02 13:42:38",175.0
"2017-02-02 13:42:39",326.0
"2017-02-02 13:42:40",159.0
"2017-02-02 13:42:41",411.0
"2017-02-02 13:42:43",324.0
"2017-02-02 13:43:12",432.0
"2017-02-02 13:43:32",337.0
"2017-02-02 13:44:48",418.0
"2017-02-02 13:45:59",327.0
"2017-02-02 13:46:15",216.0
"2017-02-02 13:46:17",490.0
"2017-02-02 13:47:09",467.0
"2017-02-02 13:47:25",256.0
"2017-02-02 13:47:27",344.0
"2017-02-02 13:47:28",453.0
"2017-02-02 13:47:32",276.0
"2017-02-02 13:47:33",398.0
"2017-02-02 13:47:34",481.0
"2017-02-02 13:47:35",566.0
"2017-02-02 13:47:38",650.0
"2017-02-02 13:47:40",419.0
"2017-02-02 13:47:41",262.0
"2017-02-02 13:47:42",173.0
"2017-02-06 12:53:43",521.0
"2017-02-06 12:53:44",216.0
"2017-02-06 12:53:48",111.0
"2017-02-06 12:53:49",298.0
"2017-02-06 12:53:50",175.0
"2017-02-06 12:53:51",282.0
"2017-02-06 12:53:53",188.0
"2017-02-06 12:53:54",390.0
"2017-02-06 12:53:55",303.0
"2017-02-06 12:54:05",386.0
"2017-02-06 12:54:06",284.0
"2017-02-06 12:54:07",379.0
"2017-02-06 12:54:29",282.0
"2017-02-06 12:54:30",363.0
"2017-02-06 12:54:33",197.0
"2017-02-06 12:54:34",300.0
"2017-02-06 12:54:35",313.0
"2017-02-06 12:55:01",401.0
"2017-02-06 12:56:24",302.0
"2017-02-06 12:56:26",393.0
"2017-02-06 12:57:14",300.0
"2017-02-06 12:57:15",392.0
"2017-02-06 12:57:40",301.0
"2017-02-06 12:57:43",385.0
"2017-02-06 12:59:18",301.0
"2017-02-06 12:59:19",408.0
"2017-02-06 12:59:23",327.0
"2017-02-06 13:00:06",278.0
"2017-02-06 13:00:09",414.0
"2017-02-06 13:00:27",318.0
"2017-02-06 13:00:57",400.0
"2017-02-06 13:01:15",312.0
"2017-02-06 13:01:16",410.0
"2017-02-06 13:02:15",320.0
"2017-02-06 13:02:39",406.0
"2017-02-06 13:03:34",303.0
"2017-02-06 13:03:46",385.0
"2017-02-06 13:05:51",285.0
"2017-02-06 13:05:52",200.0
"2017-02-06 13:05:53",508.0
"2017-02-06 13:05:54",597.0
"2017-02-06 13:05:55",584.0
"2017-02-06 13:07:30",497.0
"2017-02-06 13:07:31",159.0
"2017-02-06 13:07:32",281.0
"2017-02-06 13:07:34",362.0
"2017-02-06 13:08:32",259.0
"2017-02-06 13:08:58",349.0
"2017-02-06 13:09:24",430.0
"2017-02-06 13:11:07",338.0
"2017-02-06 13:11:50",272.0
"2017-02-06 13:11:51",581.0
"2017-02-06 13:11:53",456.0
"2017-02-06 13:11:54",351.0
"2017-02-06 13:11:57",436.0
"2017-02-06 13:11:58",532.0
"2017-02-06 13:13:58",448.0
"2017-02-06 13:13:59",444.0
"2017-02-06 13:14:00",562.0
"2017-02-06 13:14:39",133.0
"2017-02-06 13:14:40",400.0
"2017-02-06 13:15:34",317.0
"2017-02-06 13:15:35",419.0
"2017-02-06 13:17:03",335.0
"2017-02-06 13:17:10",418.0
"2017-02-06 13:18:04",275.0
"2017-02-06 13:18:05",418.0
"2017-02-06 13:18:06",529.0
"2017-02-06 13:18:07",618.0
"2017-02-06 13:23:15",473.0
"2017-02-06 13:23:16",188.0
"2017-02-06 13:23:20",316.0
"2017-02-06 13:23:21",445.0
"2017-02-06 13:23:22",114.0
"2017-02-06 13:23:39",968.0
"2017-02-06 13:23:40",166.0
"2017-02-06 13:23:44",366.0
"2017-02-06 13:23:45",281.0
"2017-02-06 13:23:46",393.0
"2017-02-06 13:23:53",288.0
"2017-02-06 13:24:09",370.0
"2017-02-06 13:26:07",286.0
"2017-02-06 13:26:08",298.0
"2017-02-06 13:26:09",180.0
"2017-02-06 13:26:10",311.0
"2017-02-06 13:26:11",537.0
"2017-02-06 13:26:13",449.0
"2017-02-06 13:26:14",538.0
"2017-02-06 13:26:15",418.0
"2017-02-06 13:26:16",505.0
"2017-02-06 13:30:08",586.0
"2017-02-06 13:30:52",177.0
"2017-02-06 13:30:53",447.0
"2017-02-06 13:30:54",267.0
"2017-02-06 13:30:55",378.0
"2017-02-06 13:31:29",472.0
"2017-02-06 13:31:47",570.0
"2017-02-06 13:31:49",393.0
"2017-02-06 13:31:50",427.0
"2017-02-06 13:31:52",519.0
"2017-02-06 13:35:30",318.0
"2017-02-06 13:35:31",449.0
"2017-02-06 13:35:34",534.0
"2017-02-06 13:39:28",225.0
"2017-02-06 13:39:29",551.0
"2017-02-06 13:39:30",147.0
"2017-02-06 13:39:31",252.0
"2017-02-06 13:39:34",334.0
"2017-02-06 13:40:26",242.0
"2017-02-06 13:40:32",341.0
"2017-02-06 13:41:00",237.0
"2017-02-06 13:41:06",324.0
"2017-02-06 13:46:34",198.0
"2017-02-06 13:46:35",302.0
"2017-02-06 13:51:38",271.0
"2017-02-06 13:51:39",358.0
"2017-02-06 13:51:40",498.0
"2017-02-06 13:51:42",184.0
"2017-02-06 13:51:43",438.0
"2017-02-06 13:51:50",128.0
"2017-02-06 13:51:52",228.0
"2017-02-06 13:51:53",311.0
"2017-02-06 13:51:54",215.0
"2017-02-06 13:51:55",557.0
"2017-02-06 13:51:56",110.0
"2017-02-07 12:55:24",570.0
"2017-02-07 12:55:25",283.0
"2017-02-07 12:55:26",334.0
"2017-02-07 12:55:27",160.0
"2017-02-07 12:55:28",242.0
"2017-02-07 12:55:31",338.0
"2017-02-07 12:55:36",431.0
"2017-02-07 12:55:37",335.0
"2017-02-07 12:57:02",428.0
"2017-02-07 12:57:04",194.0
"2017-02-07 12:57:05",294.0
"2017-02-07 12:57:07",534.0
"2017-02-07 12:57:12",331.0
"2017-02-07 12:57:20",415.0
"2017-02-07 12:58:50",519.0
"2017-02-07 12:59:04",436.0
"2017-02-07 12:59:19",519.0
"2017-02-07 12:59:43",422.0
"2017-02-07 12:59:45",307.0
"2017-02-07 12:59:46",529.0
"2017-02-07 13:00:36",445.0
"2017-02-07 13:01:13",527.0
"2017-02-07 13:01:40",432.0
"2017-02-07 13:01:41",216.0
"2017-02-07 13:01:42",534.0
"2017-02-07 13:01:44",624.0
"2017-02-07 13:03:30",179.0
"2017-02-07 13:03:31",272.0
"2017-02-07 13:03:32",357.0
"2017-02-07 13:03:35",446.0
"2017-02-07 13:08:06",246.0
"2017-02-07 13:08:07",400.0
"2017-02-07 13:08:09",514.0
"2017-02-07 13:10:23",602.0
"2017-02-07 13:10:46",501.0
"2017-02-07 13:11:53",602.0
"2017-02-07 13:12:23",499.0
"2017-02-07 13:13:21",602.0
"2017-02-07 13:13:55",516.0
"2017-02-07 13:14:17",612.0
"2017-02-07 13:15:08",381.0
"2017-02-07 13:15:09",450.0
"2017-02-07 13:15:10",430.0
"2017-02-07 13:15:11",584.0
"2017-02-07 13:15:15",498.0
"2017-02-07 13:15:16",606.0
"2017-02-07 13:17:00",231.0
"2017-02-07 13:17:01",397.0
"2017-02-07 13:17:03",635.0
"2017-02-07 13:17:04",639.0
"2017-02-07 13:19:36",528.0
"2017-02-07 13:19:37",430.0
"2017-02-07 13:19:38",531.0
"2017-02-07 13:19:40",618.0
"2017-02-07 13:20:12",705.0
"2017-02-07 13:20:13",607.0
"2017-02-07 13:20:15",688.0
"2017-02-07 13:20:52",580.0
"2017-02-07 13:20:55",662.0
"2017-02-07 13:20:58",465.0
"2017-02-07 13:20:59",550.0
"2017-02-07 13:21:01",170.0
"2017-02-07 13:21:02",464.0
"2017-02-07 13:21:03",185.0
"2017-02-07 13:21:23",1024.0
"2017-02-07 13:21:24",134.0
"2017-02-07 13:21:25",286.0
"2017-02-07 13:21:26",447.0
"2017-02-07 13:21:27",410.0
"2017-02-07 13:21:28",510.0
"2017-02-07 13:21:29",266.0
"2017-02-07 13:21:30",970.0
"2017-02-07 13:21:31",645.0
"2017-02-07 13:21:32",857.0
"2017-02-07 13:21:34",639.0
"2017-02-07 13:21:35",735.0
"2017-02-07 13:22:18",863.0
"2017-02-07 13:22:47",781.0
"2017-02-07 13:23:51",683.0
"2017-02-07 13:23:59",764.0
"2017-02-07 13:25:06",681.0
"2017-02-07 13:25:10",941.0
"2017-02-07 13:25:12",856.0
"2017-02-07 13:25:13",973.0
"2017-02-07 13:25:21",890.0
"2017-02-07 13:27:10",653.0
"2017-02-07 13:27:11",958.0
"2017-02-07 13:30:43",846.0
"2017-02-07 13:30:44",730.0
"2017-02-07 13:30:45",811.0
"2017-02-07 13:31:24",712.0
"2017-02-07 13:31:48",793.0
"2017-02-07 13:31:52",699.0
"2017-02-07 13:31:56",916.0
"2017-02-07 13:31:57",161.0
"2017-02-07 13:31:58",405.0
"2017-02-07 13:32:00",491.0
"2017-02-07 13:32:01",489.0
"2017-02-07 13:32:13",575.0
"2017-02-07 13:34:08",267.0
"2017-02-07 13:34:09",359.0
"2017-02-07 13:34:10",126.0
"2017-02-07 13:34:11",217.0
"2017-02-07 13:36:25",127.0
"2017-02-07 13:36:26",363.0
"2017-02-07 13:36:27",378.0
"2017-02-07 13:36:28",177.0
"2017-02-07 13:36:29",283.0
"2017-02-07 13:39:27",392.0
"2017-02-07 13:39:28",491.0
"2017-02-07 13:39:29",334.0
"2017-02-07 13:41:23",419.0
"2017-02-07 13:41:24",501.0
"2017-02-07 13:41:25",583.0
"2017-02-07 13:41:28",471.0
"2017-02-07 13:42:09",555.0
"2017-02-07 13:42:52",458.0
"2017-02-07 13:42:53",540.0
"2017-02-07 13:44:45",215.0
"2017-02-07 13:44:48",302.0
"2017-02-07 13:44:52",415.0
"2017-02-07 13:45:01",202.0
"2017-02-07 13:45:02",424.0
"2017-02-07 13:45:03",508.0
"2017-02-07 13:45:07",591.0
"2017-02-07 13:45:22",453.0
"2017-02-07 13:45:24",205.0
"2017-02-07 13:45:27",288.0
"2017-02-07 13:45:31",174.0
"2017-02-07 13:45:32",374.0
"2017-02-07 13:45:34",300.0
"2017-02-07 13:45:35",433.0
"2017-02-07 13:45:37",532.0
"2017-02-07 13:45:42",219.0
"2017-02-07 13:45:44",427.0
"2017-02-07 13:45:46",326.0
"2017-02-07 13:45:48",412.0
"2017-02-07 13:45:49",319.0
"2017-02-07 13:45:50",402.0
"2017-02-07 13:45:56",245.0
"2017-02-07 13:45:58",534.0
"2017-02-07 13:46:08",187.0
"2017-02-07 13:46:11",279.0
"2017-02-07 13:46:29",371.0
"2017-02-07 13:46:30",520.0
"2017-02-07 13:46:36",204.0
"2017-02-07 13:46:43",108.0
"2017-02-08 12:55:05",540.0
"2017-02-08 12:55:06",414.0
"2017-02-08 12:55:07",344.0
"2017-02-08 12:55:08",271.0
"2017-02-08 12:55:09",279.0
"2017-02-08 12:55:10",349.0
"2017-02-08 12:55:11",404.0
"2017-02-08 12:55:12",449.0
"2017-02-08 12:55:13",536.0
"2017-02-08 12:55:14",232.0
"2017-02-08 12:55:15",319.0
"2017-02-08 12:55:16",532.0
"2017-02-08 12:55:17",471.0
"2017-02-08 12:55:18",200.0
"2017-02-08 12:55:21",391.0
"2017-02-08 12:55:24",241.0
"2017-02-08 12:55:25",335.0
"2017-02-08 12:58:30",430.0
"2017-02-08 13:09:42",343.0
"2017-02-08 13:10:55",213.0
"2017-02-08 13:10:56",295.0
"2017-02-08 13:10:59",213.0
"2017-02-08 13:11:00",314.0
"2017-02-08 13:11:05",205.0
"2017-02-08 13:11:27",302.0
"2017-02-08 13:11:28",384.0
"2017-02-08 13:11:29",522.0
"2017-02-08 13:11:30",558.0
"2017-02-08 13:12:28",665.0
"2017-02-08 13:12:31",583.0
"2017-02-08 13:16:51",498.0
"2017-02-08 13:16:54",608.0
"2017-02-08 13:18:20",197.0
"2017-02-08 13:18:21",303.0
"2017-02-08 13:18:22",169.0
"2017-02-08 13:18:26",108.0
"2017-02-08 13:18:27",219.0
"2017-02-08 13:18:28",500.0
"2017-02-08 13:18:29",152.0
"2017-02-08 13:18:45",1024.0
"2017-02-08 13:18:46",345.0
"2017-02-08 13:18:47",554.0
"2017-02-08 13:18:49",331.0
"2017-02-08 13:18:50",226.0
"2017-02-08 13:18:51",320.0
"2017-02-08 13:18:52",156.0
"2017-02-08 13:18:54",260.0
"2017-02-08 13:18:55",343.0
"2017-02-08 13:18:56",262.0
"2017-02-08 13:19:04",345.0
"2017-02-08 13:20:52",263.0
"2017-02-08 13:23:17",358.0
"2017-02-08 13:24:59",275.0
"2017-02-08 13:25:38",270.0
"2017-02-08 13:25:39",448.0
"2017-02-08 13:25:40",544.0
"2017-02-08 13:27:18",630.0
"2017-02-08 13:34:05",547.0
"2017-02-08 13:34:46",172.0
"2017-02-08 13:34:47",298.0
"2017-02-08 13:35:39",132.0
"2017-02-08 13:35:40",430.0
"2017-02-08 13:35:41",137.0
"2017-02-08 13:35:42",335.0
"2017-02-08 13:35:44",242.0
"2017-02-08 13:40:18",249.0
"2017-02-08 13:41:43",330.0
"2017-02-08 13:41:45",236.0
"2017-02-08 13:42:30",356.0
"2017-02-08 13:42:31",113.0
"2017-02-08 13:42:32",431.0
"2017-02-08 13:42:33",575.0
"2017-02-08 13:45:58",658.0
"2017-02-08 13:48:00",564.0
"2017-02-08 13:49:43",318.0
"2017-02-08 13:49:45",218.0
"2017-02-08 13:49:46",300.0
"2017-02-08 13:49:47",392.0
"2017-02-08 13:49:48",292.0
"2017-02-08 13:49:49",201.0
"2017-02-08 13:49:50",198.0
"2017-02-08 13:49:52",285.0
"2017-02-08 13:50:03",236.0
"2017-02-08 13:50:04",656.0
"2017-02-08 13:50:05",110.0
"2017-02-09 12:54:48",413.0
"2017-02-09 12:54:49",157.0
"2017-02-09 12:54:50",149.0
"2017-02-09 12:54:54",269.0
"2017-02-09 12:54:58",168.0
"2017-02-09 12:54:59",265.0
"2017-02-09 12:55:01",348.0
"2017-02-09 12:55:03",262.0
"2017-02-09 12:55:06",345.0
"2017-02-09 12:55:07",264.0
"2017-02-09 12:55:11",351.0
"2017-02-09 12:55:31",328.0
"2017-02-09 12:55:41",232.0
"2017-02-09 12:55:42",344.0
"2017-02-09 12:56:12",244.0
"2017-02-09 12:56:13",371.0
"2017-02-09 13:08:15",360.0
"2017-02-09 13:08:57",315.0
"2017-02-09 13:08:58",380.0
"2017-02-09 13:10:30",461.0
"2017-02-09 13:11:30",379.0
"2017-02-09 13:11:31",465.0
"2017-02-09 13:11:34",481.0
"2017-02-09 13:12:12",215.0
"2017-02-09 13:12:14",329.0
"2017-02-09 13:14:08",191.0
"2017-02-09 13:14:09",309.0
"2017-02-09 13:14:53",309.0
"2017-02-09 13:14:54",190.0
"2017-02-09 13:14:57",354.0
"2017-02-09 13:15:24",248.0
"2017-02-09 13:15:26",331.0
"2017-02-09 13:15:28",166.0
"2017-02-09 13:15:54",492.0
"2017-02-09 13:15:58",578.0
"2017-02-09 13:17:26",668.0
"2017-02-09 13:17:55",585.0
"2017-02-09 13:18:54",672.0
"2017-02-09 13:25:57",318.0
"2017-02-09 13:25:58",210.0
"2017-02-09 13:25:59",445.0
"2017-02-09 13:26:00",173.0
"2017-02-09 13:26:27",528.0
"2017-02-09 13:26:28",184.0
"2017-02-09 13:26:29",182.0
"2017-02-09 13:26:30",266.0
"2017-02-09 13:26:31",352.0
"2017-02-09 13:27:17",255.0
"2017-02-09 13:27:18",337.0
"2017-02-09 13:28:39",374.0
"2017-02-09 13:28:40",553.0
"2017-02-09 13:29:39",635.0
"2017-02-09 13:31:57",154.0
"2017-02-09 13:31:58",144.0
"2017-02-09 13:31:59",312.0
"2017-02-09 13:32:00",413.0
"2017-02-09 13:33:16",213.0
"2017-02-09 13:33:19",318.0
"2017-02-09 13:33:23",409.0
"2017-02-09 13:33:57",238.0
"2017-02-09 13:35:50",327.0
"2017-02-09 13:35:57",236.0
"2017-02-09 13:35:58",333.0
"2017-02-09 13:36:57",354.0
"2017-02-09 13:36:58",531.0
"2017-02-09 13:47:05",222.0
"2017-02-09 13:47:06",108.0
"2017-02-09 13:47:07",382.0
"2017-02-09 13:47:08",301.0
"2017-02-09 13:47:09",406.0
"2017-02-09 13:47:10",106.0
"2017-02-10 12:29:47",417.0
"2017-02-10 12:29:48",156.0
"2017-02-13 13:22:15",575.0
"2017-02-13 13:22:16",606.0
"2017-02-13 13:22:17",201.0
"2017-02-13 13:22:22",295.0
"2017-02-13 13:22:23",428.0
"2017-02-13 13:22:26",166.0
"2017-02-13 13:22:27",372.0
"2017-02-13 13:22:28",382.0
"2017-02-13 13:22:31",464.0
"2017-02-13 13:22:50",380.0
"2017-02-13 13:22:52",461.0
"2017-02-13 13:23:14",376.0
"2017-02-13 13:23:19",458.0
"2017-02-13 13:23:24",511.0
"2017-02-13 13:23:27",421.0
"2017-02-13 13:23:29",532.0
"2017-02-13 13:24:03",349.0
"2017-02-13 13:24:04",448.0
"2017-02-13 13:24:06",546.0
"2017-02-13 13:25:25",465.0
"2017-02-13 13:25:28",546.0
"2017-02-13 13:27:24",575.0
"2017-02-13 13:29:38",478.0
"2017-02-13 13:29:49",562.0
"2017-02-13 13:30:38",564.0
"2017-02-13 13:30:47",475.0
"2017-02-13 13:30:48",494.0
"2017-02-13 13:32:51",477.0
"2017-02-13 13:32:53",564.0
"2017-02-13 13:35:33",450.0
"2017-02-13 13:35:34",533.0
"2017-02-13 13:35:43",435.0
"2017-02-13 13:35:44",360.0
"2017-02-13 13:35:45",532.0
"2017-02-13 13:42:13",270.0
"2017-02-13 13:42:14",175.0
"2017-02-13 13:42:15",421.0
"2017-02-13 13:42:16",433.0
"2017-02-13 13:43:18",460.0
"2017-02-13 13:43:19",551.0
"2017-02-13 13:43:20",317.0
"2017-02-13 13:43:21",461.0
"2017-02-13 13:44:24",337.0
"2017-02-13 13:44:27",432.0
"2017-02-13 13:44:41",197.0
"2017-02-13 13:44:43",327.0
"2017-02-13 13:44:44",438.0
"2017-02-13 13:44:46",348.0
"2017-02-13 13:45:04",446.0
"2017-02-13 13:46:01",199.0
"2017-02-13 13:46:05",445.0
"2017-02-13 13:46:07",338.0
"2017-02-13 13:46:08",436.0
"2017-02-13 13:46:28",328.0
"2017-02-13 13:46:30",197.0
"2017-02-13 13:46:32",115.0
"2017-02-13 13:46:33",439.0
"2017-02-13 13:46:34",88.0
"2017-02-13 13:46:53",760.0
"2017-02-13 13:46:54",108.0
"2017-02-13 13:46:55",420.0
"2017-02-13 13:47:07",292.0
"2017-02-13 13:47:08",190.0
"2017-02-13 13:47:09",356.0
"2017-02-13 13:47:30",441.0
"2017-02-13 13:58:15",360.0
"2017-02-13 14:00:03",274.0
"2017-02-13 14:00:04",313.0
"2017-02-13 14:00:05",743.0
"2017-02-13 14:00:06",659.0
"2017-02-13 14:00:09",849.0
"2017-02-13 14:00:12",730.0
"2017-02-13 14:06:39",858.0
"2017-02-13 14:06:40",576.0
"2017-02-13 14:06:41",136.0
"2017-02-13 14:06:42",222.0
"2017-02-13 14:06:43",134.0
"2017-02-13 14:06:44",316.0
"2017-02-13 14:16:17",233.0
"2017-02-13 14:16:18",137.0
"2017-02-13 14:16:19",365.0
"2017-02-13 14:16:20",147.0
"2017-02-13 14:16:21",282.0
"2017-02-13 14:16:23",200.0
"2017-02-13 14:16:46",369.0
"2017-02-13 14:16:48",453.0
"2017-02-13 14:18:06",370.0
"2017-02-13 14:18:07",516.0
"2017-02-13 14:18:17",342.0
"2017-02-13 14:18:19",341.0
"2017-02-13 14:18:23",228.0
"2017-02-13 14:18:24",335.0
"2017-02-13 14:18:26",241.0
"2017-02-13 14:18:31",372.0
"2017-02-13 14:18:33",147.0
"2017-02-13 14:18:34",795.0
"2017-02-13 14:18:35",214.0
"2017-02-13 14:18:36",806.0
"2017-02-13 14:18:38",44.0
"2017-02-13 14:18:50",125.0
"2017-02-14 13:26:06",109.0
"2017-02-14 13:26:07",436.0
"2017-02-14 13:26:08",115.0
"2017-02-14 13:26:11",219.0
"2017-02-14 13:26:12",253.0
"2017-02-14 13:26:16",124.0
"2017-02-14 13:26:18",216.0
"2017-02-14 13:26:22",344.0
"2017-02-14 13:26:24",240.0
"2017-02-14 13:26:38",336.0
"2017-02-14 13:26:46",239.0
"2017-02-14 13:26:48",329.0
"2017-02-14 13:27:36",241.0
"2017-02-14 13:27:37",352.0
"2017-02-14 13:27:48",268.0
"2017-02-14 13:27:51",358.0
"2017-02-14 13:28:54",160.0
"2017-02-14 13:28:56",242.0
"2017-02-14 13:28:57",352.0
"2017-02-14 13:30:49",356.0
"2017-02-14 13:30:50",355.0
"2017-02-14 13:32:43",254.0
"2017-02-14 13:32:44",372.0
"2017-02-14 13:34:26",282.0
"2017-02-14 13:35:18",371.0
"2017-02-14 13:36:13",263.0
"2017-02-14 13:36:14",356.0
"2017-02-14 13:37:49",162.0
"2017-02-14 13:37:51",350.0
"2017-02-14 13:38:23",246.0
"2017-02-14 13:38:24",380.0
"2017-02-14 13:40:18",265.0
"2017-02-14 13:40:23",365.0
"2017-02-14 13:41:33",267.0
"2017-02-14 13:41:34",357.0
"2017-02-14 13:42:25",443.0
"2017-02-14 13:43:45",155.0
"2017-02-14 13:43:47",488.0
"2017-02-14 13:43:48",345.0
"2017-02-14 13:43:49",434.0
"2017-02-14 13:47:23",309.0
"2017-02-14 13:47:24",216.0
"2017-02-14 13:47:30",334.0
"2017-02-14 13:47:31",429.0
"2017-02-14 13:49:57",276.0
"2017-02-14 13:49:59",382.0
"2017-02-14 13:50:02",463.0
"2017-02-14 13:50:33",276.0
"2017-02-14 13:50:34",397.0
"2017-02-14 13:50:48",313.0
"2017-02-14 13:50:52",411.0
"2017-02-14 13:50:53",283.0
"2017-02-14 13:50:54",176.0
"2017-02-14 13:50:56",334.0
"2017-02-14 13:50:57",107.0
"2017-02-14 13:51:14",418.0
"2017-02-14 13:51:15",401.0
"2017-02-14 13:51:16",101.0
"2017-02-14 13:51:17",463.0
"2017-02-14 13:51:18",222.0
"2017-02-14 13:51:19",370.0
"2017-02-14 13:51:20",567.0
"2017-02-14 14:01:17",456.0
"2017-02-14 14:01:18",470.0
"2017-02-14 14:01:19",595.0
"2017-02-14 14:01:20",593.0
"2017-02-14 14:01:21",671.0
"2017-02-14 14:01:22",487.0
"2017-02-14 14:01:23",590.0
"2017-02-14 14:01:24",693.0
"2017-02-14 14:02:46",778.0
"2017-02-14 14:02:48",689.0
"2017-02-14 14:02:52",779.0
"2017-02-14 14:03:25",694.0
"2017-02-14 14:03:29",775.0
"2017-02-14 14:11:48",1022.0
"2017-02-14 14:11:49",1024.0
"2017-02-14 14:11:53",747.0
"2017-02-14 14:11:54",982.0
"2017-02-14 14:11:55",1024.0
"2017-02-14 14:11:56",992.0
"2017-02-14 14:11:57",101.0
"2017-02-15 13:00:46",372.0
"2017-02-15 13:00:47",184.0
"2017-02-15 13:00:48",480.0
"2017-02-15 13:00:49",114.0
"2017-02-15 13:00:50",211.0
"2017-02-15 13:00:51",435.0
"2017-02-15 13:00:52",259.0
"2017-02-15 13:00:54",225.0
"2017-02-15 13:00:55",483.0
"2017-02-15 13:00:59",288.0
"2017-02-15 13:01:01",430.0
"2017-02-15 13:01:03",516.0
"2017-02-15 13:01:07",311.0
"2017-02-15 13:01:10",530.0
"2017-02-15 13:01:31",539.0
"2017-02-15 13:03:10",574.0
"2017-02-15 13:03:11",490.0
"2017-02-15 13:03:22",578.0
"2017-02-15 13:03:44",453.0
"2017-02-15 13:04:08",534.0
"2017-02-15 13:04:14",464.0
"2017-02-15 13:04:15",602.0
"2017-02-15 13:04:35",509.0
"2017-02-15 13:04:41",396.0
"2017-02-15 13:04:42",513.0
"2017-02-15 13:09:12",431.0
"2017-02-15 13:09:13",556.0
"2017-02-15 13:11:08",550.0
"2017-02-15 13:13:11",634.0
"2017-02-15 13:13:53",464.0
"2017-02-15 13:13:54",559.0
"2017-02-15 13:15:15",591.0
"2017-02-15 13:18:28",506.0
"2017-02-15 13:18:29",398.0
"2017-02-15 13:18:30",605.0
"2017-02-15 13:18:31",522.0
"2017-02-15 13:18:32",619.0
"2017-02-15 13:19:21",613.0
"2017-02-15 13:20:36",660.0
"2017-02-15 13:22:46",637.0
"2017-02-15 13:22:48",603.0
"2017-02-15 13:25:18",453.0
"2017-02-15 13:25:20",546.0
"2017-02-15 13:25:22",318.0
"2017-02-15 13:25:24",219.0
"2017-02-15 13:25:27",312.0
"2017-02-15 13:25:28",162.0
"2017-02-15 13:25:31",582.0
"2017-02-15 13:25:32",132.0
"2017-02-15 13:25:43",697.0
"2017-02-15 13:25:44",338.0
"2017-02-15 13:25:45",486.0
"2017-02-15 13:25:46",438.0
"2017-02-15 13:25:47",529.0
"2017-02-15 13:25:56",617.0
"2017-02-15 13:27:18",529.0
"2017-02-15 13:27:19",636.0
"2017-02-15 13:38:16",285.0
"2017-02-15 13:38:17",355.0
"2017-02-15 13:40:33",439.0
"2017-02-15 13:46:02",141.0
"2017-02-15 13:46:03",232.0
"2017-02-15 13:46:04",588.0
"2017-02-15 13:46:05",702.0
"2017-02-15 13:46:06",394.0
"2017-02-15 13:46:07",396.0
"2017-02-15 13:46:08",501.0
"2017-02-15 13:46:09",496.0
"2017-02-15 13:46:10",446.0
"2017-02-15 13:46:11",173.0
"2017-02-15 13:46:12",546.0
"2017-02-15 13:46:13",106.0
"2017-02-16 12:56:23",190.0
"2017-02-16 12:56:24",82.0
"2017-02-16 12:56:25",125.0
"2017-02-16 12:56:28",224.0
"2017-02-16 12:56:29",327.0
"2017-02-16 12:56:31",204.0
"2017-02-16 12:56:32",121.0
"2017-02-16 12:56:33",343.0
"2017-02-16 12:56:34",335.0
"2017-02-16 12:56:39",155.0
"2017-02-16 12:56:40",347.0
"2017-02-16 12:56:45",237.0
"2017-02-16 12:56:46",340.0
"2017-02-16 12:56:55",223.0
"2017-02-16 12:56:56",362.0
"2017-02-16 12:57:18",132.0
"2017-02-16 12:57:20",218.0
"2017-02-16 12:57:22",318.0
"2017-02-16 12:57:31",236.0
"2017-02-16 12:57:32",138.0
"2017-02-16 12:57:33",244.0
"2017-02-16 12:57:34",360.0
"2017-02-16 12:57:52",272.0
"2017-02-16 12:57:54",367.0
"2017-02-16 12:58:13",351.0
"2017-02-16 12:58:56",154.0
"2017-02-16 12:58:57",307.0
"2017-02-16 13:00:24",173.0
"2017-02-16 13:00:26",284.0
"2017-02-16 13:00:27",264.0
"2017-02-16 13:00:29",345.0
"2017-02-16 13:00:46",201.0
"2017-02-16 13:00:47",315.0
"2017-02-16 13:01:11",397.0
"2017-02-16 13:01:12",178.0
"2017-02-16 13:01:13",302.0
"2017-02-16 13:06:05",393.0
"2017-02-16 13:06:41",273.0
"2017-02-16 13:06:42",171.0
"2017-02-16 13:06:43",303.0
"2017-02-16 13:07:22",393.0
"2017-02-16 13:09:18",308.0
"2017-02-16 13:10:15",222.0
"2017-02-16 13:10:16",319.0
"2017-02-16 13:10:31",176.0
"2017-02-16 13:10:32",315.0
"2017-02-16 13:10:43",405.0
"2017-02-16 13:11:18",179.0
"2017-02-16 13:11:20",276.0
"2017-02-16 13:11:21",280.0
"2017-02-16 13:11:22",396.0
"2017-02-16 13:12:05",309.0
"2017-02-16 13:12:06",444.0
"2017-02-16 13:12:09",362.0
"2017-02-16 13:12:12",454.0
"2017-02-16 13:13:10",372.0
"2017-02-16 13:13:15",275.0
"2017-02-16 13:13:16",155.0
"2017-02-16 13:13:18",401.0
"2017-02-16 13:13:19",214.0
"2017-02-16 13:13:20",393.0
"2017-02-16 13:13:56",215.0
"2017-02-16 13:14:00",297.0
"2017-02-16 13:14:01",401.0
"2017-02-16 13:16:47",286.0
"2017-02-16 13:16:48",194.0
"2017-02-16 13:16:49",278.0
"2017-02-16 13:16:50",434.0
"2017-02-16 13:17:26",421.0
"2017-02-16 13:18:20",300.0
"2017-02-16 13:18:21",495.0
"2017-02-16 13:18:22",405.0
"2017-02-16 13:19:44",494.0
"2017-02-16 13:19:59",297.0
"2017-02-16 13:20:00",293.0
"2017-02-16 13:20:01",381.0
"2017-02-16 13:20:02",563.0
"2017-02-16 13:20:03",90.0
"2017-02-16 13:20:04",337.0
"2017-02-16 13:20:18",336.0
"2017-02-16 13:20:28",345.0
"2017-02-16 13:20:29",451.0
"2017-02-16 13:21:09",260.0
"2017-02-16 13:21:10",160.0
"2017-02-16 13:21:15",303.0
"2017-02-16 13:21:16",435.0
"2017-02-16 13:22:56",354.0
"2017-02-16 13:22:58",455.0
"2017-02-16 13:23:09",237.0
"2017-02-16 13:23:10",335.0
"2017-02-16 13:23:11",437.0
"2017-02-16 13:23:29",520.0
"2017-02-16 13:24:18",292.0
"2017-02-16 13:24:19",180.0
"2017-02-16 13:24:20",380.0
"2017-02-16 13:24:21",471.0
"2017-02-16 13:24:54",202.0
"2017-02-16 13:24:55",469.0
"2017-02-16 13:27:46",233.0
"2017-02-16 13:27:47",355.0
"2017-02-16 13:27:49",439.0
"2017-02-16 13:28:04",289.0
"2017-02-16 13:28:05",429.0
"2017-02-16 13:28:08",202.0
"2017-02-16 13:28:11",315.0
"2017-02-16 13:28:12",131.0
"2017-02-16 13:28:14",126.0
"2017-02-16 13:28:32",1024.0
"2017-02-16 13:28:33",152.0
"2017-02-16 13:28:34",238.0
"2017-02-16 13:28:35",346.0
"2017-02-16 13:30:22",429.0
"2017-02-16 13:30:23",345.0
"2017-02-16 13:31:32",263.0
"2017-02-16 13:31:33",937.0
"2017-02-16 13:31:34",997.0
"2017-02-16 13:31:35",905.0
"2017-02-16 13:31:36",740.0
"2017-02-16 13:31:39",823.0
"2017-02-16 13:31:40",738.0
"2017-02-16 13:34:19",838.0
"2017-02-16 13:34:20",721.0
"2017-02-16 13:35:51",803.0
"2017-02-16 13:35:56",586.0
"2017-02-16 13:35:57",99.0
"2017-02-16 13:35:58",650.0
"2017-02-16 13:35:59",871.0
"2017-02-16 13:36:00",785.0
"2017-02-16 13:38:01",975.0
"2017-02-16 13:38:02",100.0
"2017-02-16 13:38:03",563.0
"2017-02-16 13:38:04",90.0
"2017-02-16 13:38:05",264.0
"2017-02-16 13:38:07",147.0
"2017-02-16 13:38:08",275.0
"2017-02-16 13:49:34",122.0
"2017-02-16 13:49:36",364.0
"2017-02-16 13:49:39",167.0
"2017-02-16 13:49:40",81.0
"2017-02-16 13:49:41",163.0
"2017-02-16 13:49:42",71.0
"2017-02-20 12:51:32",200.0
"2017-02-20 12:51:33",527.0
"2017-02-20 12:51:34",828.0
"2017-02-20 12:51:35",229.0
"2017-02-20 12:51:37",316.0
"2017-02-20 12:51:41",356.0
"2017-02-20 12:51:42",142.0
"2017-02-20 12:51:44",164.0
"2017-02-20 12:51:48",376.0
"2017-02-20 12:51:53",383.0
"2017-02-20 12:51:55",489.0
"2017-02-20 12:52:01",272.0
"2017-02-20 12:52:02",529.0
"2017-02-20 12:52:16",446.0
"2017-02-20 12:52:18",536.0
"2017-02-20 12:52:25",414.0
"2017-02-20 12:52:26",531.0
"2017-02-20 12:52:40",437.0
"2017-02-20 12:52:41",558.0
"2017-02-20 12:52:51",489.0
"2017-02-20 12:52:52",574.0
"2017-02-20 12:53:03",492.0
"2017-02-20 12:53:06",475.0
"2017-02-20 12:53:13",564.0
"2017-02-20 12:53:27",410.0
"2017-02-20 12:53:28",556.0
"2017-02-20 12:53:47",445.0
"2017-02-20 12:53:48",547.0
"2017-02-20 12:54:25",465.0
"2017-02-20 12:54:30",562.0
"2017-02-20 12:54:43",216.0
"2017-02-20 12:54:44",523.0
"2017-02-20 12:58:00",148.0
"2017-02-20 12:58:01",487.0
"2017-02-20 13:00:13",570.0
"2017-02-20 13:01:08",461.0
"2017-02-20 13:01:44",218.0
"2017-02-20 13:01:45",319.0
"2017-02-20 13:01:46",561.0
"2017-02-20 13:02:31",451.0
"2017-02-20 13:02:32",444.0
"2017-02-20 13:02:35",525.0
"2017-02-20 13:02:36",523.0
"2017-02-20 13:02:55",439.0
"2017-02-20 13:02:56",531.0
"2017-02-20 13:04:02",408.0
"2017-02-20 13:04:03",269.0
"2017-02-20 13:04:04",578.0
"2017-02-20 13:04:05",516.0
"2017-02-20 13:06:32",432.0
"2017-02-20 13:06:33",548.0
"2017-02-20 13:07:25",542.0
"2017-02-20 13:08:45",540.0
"2017-02-20 13:08:46",297.0
"2017-02-20 13:08:47",549.0
"2017-02-20 13:09:30",282.0
"2017-02-20 13:09:32",166.0
"2017-02-20 13:09:33",392.0
"2017-02-20 13:09:34",549.0
"2017-02-20 13:10:44",467.0
"2017-02-20 13:10:46",613.0
"2017-02-20 13:11:30",418.0
"2017-02-20 13:11:31",525.0
"2017-02-20 13:12:39",598.0
"2017-02-20 13:12:47",505.0
"2017-02-20 13:13:50",598.0
"2017-02-20 13:13:51",282.0
"2017-02-20 13:13:52",463.0
"2017-02-20 13:13:53",554.0
"2017-02-20 13:15:16",363.0
"2017-02-20 13:15:18",378.0
"2017-02-20 13:15:19",580.0
"2017-02-20 13:15:20",483.0
"2017-02-20 13:15:59",538.0
"2017-02-20 13:16:19",437.0
"2017-02-20 13:16:32",304.0
"2017-02-20 13:16:33",507.0
"2017-02-20 13:16:40",593.0
"2017-02-20 13:16:55",333.0
"2017-02-20 13:16:57",457.0
"2017-02-20 13:17:03",541.0
"2017-02-20 13:17:05",546.0
"2017-02-20 13:17:38",635.0
"2017-02-20 13:17:39",472.0
"2017-02-20 13:17:40",572.0
"2017-02-20 13:17:45",457.0
"2017-02-20 13:17:46",374.0
"2017-02-20 13:17:47",557.0
"2017-02-20 13:17:48",557.0
"2017-02-20 13:18:18",461.0
"2017-02-20 13:18:19",591.0
"2017-02-20 13:19:14",488.0
"2017-02-20 13:19:26",393.0
"2017-02-20 13:19:28",222.0
"2017-02-20 13:19:29",616.0
"2017-02-20 13:19:30",530.0
"2017-02-20 13:19:31",500.0
"2017-02-20 13:19:32",543.0
"2017-02-20 13:20:54",431.0
"2017-02-20 13:20:55",303.0
"2017-02-20 13:20:56",582.0
"2017-02-20 13:22:00",483.0
"2017-02-20 13:22:01",582.0
"2017-02-20 13:22:36",331.0
"2017-02-20 13:22:39",581.0
"2017-02-20 13:23:36",604.0
"2017-02-20 13:23:37",590.0
"2017-02-20 13:23:38",603.0
"2017-02-20 13:23:39",612.0
"2017-02-20 13:23:44",527.0
"2017-02-20 13:23:49",306.0
"2017-02-20 13:23:50",125.0
"2017-02-20 13:23:51",320.0
"2017-02-20 13:23:52",549.0
"2017-02-20 13:24:19",463.0
"2017-02-20 13:24:20",549.0
"2017-02-20 13:24:30",463.0
"2017-02-20 13:24:31",274.0
"2017-02-20 13:24:32",147.0
"2017-02-20 13:24:33",572.0
"2017-02-20 13:24:39",422.0
"2017-02-20 13:24:42",597.0
"2017-02-20 13:24:43",600.0
"2017-02-20 13:24:44",577.0
"2017-02-20 13:24:45",562.0
"2017-02-20 13:24:55",461.0
"2017-02-20 13:24:57",575.0
"2017-02-20 13:25:36",353.0
"2017-02-20 13:25:38",488.0
"2017-02-20 13:25:41",242.0
"2017-02-20 13:25:42",146.0
"2017-02-20 13:25:43",293.0
"2017-02-20 13:25:44",155.0
"2017-02-20 13:25:50",497.0
"2017-02-20 13:25:51",138.0
"2017-02-20 13:25:52",37.0
"2017-02-20 13:26:02",830.0
"2017-02-20 13:26:03",566.0
"2017-02-20 13:26:04",85.0
"2017-02-20 13:26:05",461.0
"2017-02-20 13:26:44",224.0
"2017-02-20 13:26:45",424.0
"2017-02-20 13:26:48",512.0
"2017-02-20 13:41:20",230.0
"2017-02-20 13:41:21",135.0
"2017-02-20 13:41:22",363.0
"2017-02-20 13:41:23",412.0
"2017-02-20 13:41:24",597.0
"2017-02-20 13:41:25",685.0
"2017-02-20 13:45:58",545.0
"2017-02-20 13:45:59",461.0
"2017-02-20 13:46:02",166.0
"2017-02-20 13:46:03",254.0
"2017-02-20 13:46:04",351.0
"2017-02-20 13:46:05",557.0
"2017-02-20 13:46:09",140.0
"2017-02-20 13:46:10",255.0
"2017-02-20 13:46:11",48.0
"2017-02-22 13:04:42",172.0
"2017-02-22 13:04:43",259.0
"2017-02-22 13:04:44",172.0
"2017-02-22 13:04:46",530.0
"2017-02-22 13:04:47",118.0
"2017-02-22 13:04:48",199.0
"2017-02-22 13:04:52",99.0
"2017-02-22 13:04:53",309.0
"2017-02-22 13:04:54",594.0
"2017-02-22 13:04:55",292.0
"2017-02-22 13:04:56",530.0
"2017-02-22 13:05:00",447.0
"2017-02-22 13:05:02",585.0
"2017-02-22 13:05:04",464.0
"2017-02-22 13:05:07",598.0
"2017-02-22 13:06:32",610.0
"2017-02-22 13:10:30",692.0
"2017-02-22 13:11:13",611.0
"2017-02-22 13:11:14",709.0
"2017-02-22 13:11:15",625.0
"2017-02-22 13:13:41",310.0
"2017-02-22 13:13:43",674.0
"2017-02-22 13:14:35",554.0
"2017-02-22 13:14:37",659.0
"2017-02-22 13:15:51",618.0
"2017-02-22 13:15:56",710.0
"2017-02-22 13:16:58",607.0
"2017-02-22 13:17:02",691.0
"2017-02-22 13:17:03",599.0
"2017-02-22 13:17:04",710.0
"2017-02-22 13:17:36",620.0
"2017-02-22 13:19:04",361.0
"2017-02-22 13:19:05",254.0
"2017-02-22 13:19:06",346.0
"2017-02-22 13:21:31",206.0
"2017-02-22 13:21:32",302.0
"2017-02-22 13:21:33",397.0
"2017-02-22 13:21:36",530.0
"2017-02-22 13:21:51",431.0
"2017-02-22 13:21:52",305.0
"2017-02-22 13:21:56",99.0
"2017-02-22 13:21:57",207.0
"2017-02-22 13:21:58",45.0
"2017-02-22 13:22:10",544.0
"2017-02-22 13:22:11",397.0
"2017-02-22 13:22:12",501.0
"2017-02-22 13:22:13",307.0
"2017-02-22 13:22:14",165.0
"2017-02-22 13:22:16",204.0
"2017-02-22 13:22:17",383.0
"2017-02-22 13:22:18",487.0
"2017-02-22 13:22:21",276.0
"2017-02-22 13:22:22",387.0
"2017-02-22 13:22:23",515.0
"2017-02-22 13:22:24",601.0
"2017-02-22 13:22:31",280.0
"2017-02-22 13:22:32",452.0
"2017-02-22 13:22:33",589.0
"2017-02-22 13:22:43",180.0
"2017-02-22 13:22:44",277.0
"2017-02-22 13:22:45",593.0
"2017-02-22 13:22:46",566.0
"2017-02-22 13:26:18",456.0
"2017-02-22 13:26:21",540.0
"2017-02-22 13:27:55",161.0
"2017-02-22 13:27:56",392.0
"2017-02-22 13:27:57",592.0
"2017-02-22 13:30:58",574.0
"2017-02-22 13:32:01",371.0
"2017-02-22 13:32:02",287.0
"2017-02-22 13:32:03",374.0
"2017-02-22 13:32:09",502.0
"2017-02-22 13:32:10",583.0
"2017-02-22 13:32:19",501.0
"2017-02-22 13:32:37",582.0
"2017-02-22 13:32:38",474.0
"2017-02-22 13:32:39",593.0
"2017-02-22 13:32:59",369.0
"2017-02-22 13:33:01",454.0
"2017-02-22 13:33:03",541.0
"2017-02-22 13:33:09",400.0
"2017-02-22 13:33:10",302.0
"2017-02-22 13:33:36",148.0
"2017-02-22 13:33:37",233.0
"2017-02-22 13:33:38",407.0
"2017-02-22 13:33:39",170.0
"2017-02-22 13:33:40",413.0
"2017-02-22 13:33:41",513.0
"2017-02-22 13:33:43",596.0
"2017-02-22 13:33:49",470.0
"2017-02-22 13:33:50",576.0
"2017-02-22 13:35:59",480.0
"2017-02-22 13:36:00",603.0
"2017-02-22 13:36:01",432.0
"2017-02-22 13:36:02",584.0
"2017-02-22 13:37:02",136.0
"2017-02-22 13:37:03",381.0
"2017-02-22 13:37:04",592.0
"2017-02-22 13:37:20",465.0
"2017-02-22 13:37:21",337.0
"2017-02-22 13:37:23",535.0
"2017-02-22 13:37:33",418.0
"2017-02-22 13:37:34",225.0
"2017-02-22 13:37:35",223.0
"2017-02-22 13:37:36",580.0
"2017-02-22 13:37:38",666.0
"2017-02-22 13:37:40",753.0
"2017-02-22 13:37:41",619.0
"2017-02-22 13:37:43",523.0
"2017-02-22 13:37:45",633.0
"2017-02-22 13:38:01",477.0
"2017-02-22 13:38:02",539.0
"2017-02-22 13:41:59",83.0
"2017-02-22 13:42:00",595.0
"2017-02-22 13:42:01",505.0
"2017-02-22 13:42:03",589.0
"2017-02-22 13:42:05",673.0
"2017-02-22 13:42:17",590.0
"2017-02-22 13:42:22",703.0
"2017-02-22 13:43:24",622.0
"2017-02-22 13:43:32",715.0
"2017-02-22 13:43:33",726.0
"2017-02-22 13:46:41",610.0
"2017-02-22 13:46:43",697.0
"2017-02-22 13:47:45",613.0
"2017-02-22 13:47:48",714.0
"2017-02-22 13:47:55",629.0
"2017-02-22 13:48:07",710.0
"2017-02-22 13:48:28",739.0
"2017-02-22 13:48:29",649.0
"2017-02-22 13:48:55",205.0
"2017-02-22 13:48:56",422.0
"2017-02-22 13:48:57",612.0
"2017-02-22 13:48:58",700.0
"2017-02-22 13:49:11",617.0
"2017-02-22 13:49:15",482.0
"2017-02-22 13:49:16",659.0
"2017-02-22 13:49:17",709.0
"2017-02-22 13:49:18",734.0
"2017-02-22 13:49:57",598.0
"2017-02-22 13:49:58",575.0
"2017-02-22 13:49:59",700.0
"2017-02-22 13:50:02",586.0
"2017-02-22 13:50:03",542.0
"2017-02-22 13:50:04",722.0
"2017-02-22 13:50:05",727.0
"2017-02-22 13:51:15",718.0
"2017-02-22 13:52:22",436.0
"2017-02-22 13:52:23",721.0
"2017-02-22 13:52:24",704.0
"2017-02-22 13:53:35",699.0
"2017-02-22 13:53:41",595.0
"2017-02-22 13:53:43",692.0
"2017-02-22 13:53:45",337.0
"2017-02-22 13:53:46",283.0
"2017-02-22 13:53:47",526.0
"2017-02-22 13:53:48",406.0
"2017-02-22 13:53:49",513.0
"2017-02-22 13:53:53",594.0
"2017-02-22 13:54:10",487.0
"2017-02-22 13:54:11",578.0
"2017-02-22 13:55:31",265.0
"2017-02-22 13:55:32",540.0
"2017-02-22 13:55:33",655.0
"2017-02-22 13:55:34",404.0
"2017-02-22 13:55:35",735.0
"2017-02-22 13:55:36",637.0
"2017-02-22 13:55:45",728.0
"2017-02-22 13:55:58",365.0
"2017-02-22 13:55:59",687.0
"2017-02-22 13:56:29",600.0
"2017-02-22 13:56:30",711.0
"2017-02-22 13:56:34",687.0
"2017-02-22 13:56:44",465.0
"2017-02-22 13:56:45",336.0
"2017-02-22 13:56:46",630.0
"2017-02-22 13:56:49",537.0
"2017-02-22 13:56:51",636.0
"2017-02-22 13:57:11",625.0
"2017-02-22 13:57:12",510.0
"2017-02-22 13:57:13",424.0
"2017-02-22 13:57:14",626.0
"2017-02-22 13:57:32",716.0
"2017-02-22 13:57:33",686.0
"2017-02-22 13:57:56",581.0
"2017-02-22 13:57:57",492.0
"2017-02-22 13:57:58",138.0
"2017-02-22 13:57:59",356.0
"2017-02-22 13:58:00",448.0
"2017-02-22 13:58:10",533.0
"2017-02-22 13:58:56",206.0
"2017-02-22 13:58:57",430.0
"2017-02-22 13:59:11",516.0
"2017-02-22 13:59:59",431.0
"2017-02-22 14:00:10",518.0
"2017-02-22 14:01:26",411.0
"2017-02-22 14:01:27",171.0
"2017-02-22 14:01:28",559.0
"2017-02-22 14:01:34",551.0
"2017-02-22 14:01:35",477.0
"2017-02-22 14:01:36",577.0
"2017-02-22 14:01:57",659.0
"2017-02-22 14:03:05",539.0
"2017-02-22 14:03:06",636.0
"2017-02-22 14:03:39",362.0
"2017-02-22 14:03:40",692.0
"2017-02-22 14:04:23",634.0
"2017-02-22 14:04:27",719.0
"2017-02-22 14:05:24",145.0
"2017-02-22 14:05:26",258.0
"2017-02-22 14:05:27",732.0
"2017-02-22 14:05:28",650.0
"2017-02-22 14:05:58",476.0
"2017-02-22 14:05:59",721.0
"2017-02-22 14:07:19",550.0
"2017-02-22 14:07:20",726.0
"2017-02-22 14:07:37",627.0
"2017-02-22 14:07:38",617.0
"2017-02-22 14:07:39",707.0
"2017-02-22 14:08:06",788.0
"2017-02-22 14:08:42",678.0
"2017-02-22 14:08:43",765.0
"2017-02-22 14:09:00",666.0
"2017-02-22 14:09:11",505.0
"2017-02-22 14:09:12",509.0
"2017-02-22 14:09:13",609.0
"2017-02-22 14:09:14",702.0
"2017-02-22 14:09:44",779.0
"2017-02-22 14:10:40",443.0
"2017-02-22 14:10:41",603.0
"2017-02-22 14:10:42",699.0
"2017-02-22 14:10:43",769.0
"2017-02-22 14:10:44",765.0
"2017-02-22 14:11:03",650.0
"2017-02-22 14:11:06",738.0
"2017-02-22 14:12:57",652.0
"2017-02-22 14:12:58",565.0
"2017-02-22 14:13:06",650.0
"2017-02-22 14:13:10",806.0
"2017-02-22 14:13:11",788.0
"2017-02-22 14:14:34",606.0
"2017-02-22 14:14:35",279.0
"2017-02-22 14:14:36",146.0
"2017-02-22 14:14:37",263.0
"2017-02-22 14:14:39",619.0
"2017-02-22 14:14:44",706.0
"2017-02-22 14:14:45",423.0
"2017-02-22 14:14:46",504.0
"2017-02-22 14:14:47",650.0
"2017-02-22 14:14:54",546.0
"2017-02-22 14:14:55",649.0
"2017-02-22 14:14:56",735.0
"2017-02-22 14:15:58",562.0
"2017-02-22 14:15:59",711.0
"2017-02-22 14:16:00",684.0
"2017-02-22 14:17:18",576.0
"2017-02-22 14:17:19",489.0
"2017-02-22 14:17:21",709.0
"2017-02-22 14:17:33",510.0
"2017-02-22 14:17:35",609.0
"2017-02-22 14:17:57",507.0
"2017-02-22 14:17:58",626.0
"2017-02-22 14:18:08",721.0
"2017-02-22 14:18:36",593.0
"2017-02-22 14:18:37",490.0
"2017-02-22 14:18:38",149.0
"2017-02-22 14:18:39",360.0
"2017-02-22 14:18:40",560.0
"2017-02-22 14:18:41",667.0
"2017-02-22 14:19:01",748.0
"2017-02-22 14:19:37",625.0
"2017-02-22 14:19:38",735.0
"2017-02-22 14:20:45",648.0
"2017-02-22 14:20:47",733.0
"2017-02-22 14:21:11",521.0
"2017-02-22 14:21:12",703.0
"2017-02-22 14:21:18",588.0
"2017-02-22 14:21:21",797.0
"2017-02-22 14:21:22",693.0
"2017-02-22 14:21:29",781.0
"2017-02-22 14:22:01",691.0
"2017-02-22 14:22:03",691.0
"2017-02-22 14:22:04",791.0
"2017-02-22 14:22:42",706.0
"2017-02-22 14:22:49",790.0
"2017-02-22 14:22:55",656.0
"2017-02-22 14:22:57",743.0
"2017-02-22 14:23:21",662.0
"2017-02-22 14:23:23",447.0
"2017-02-22 14:23:24",330.0
"2017-02-22 14:23:25",413.0
"2017-02-22 14:23:26",622.0
"2017-02-22 14:23:28",522.0
"2017-02-22 14:25:50",87.0
"2017-02-22 14:25:51",287.0
"2017-02-22 14:25:52",651.0
"2017-02-22 14:26:31",747.0
"2017-02-22 14:27:42",476.0
"2017-02-22 14:27:43",761.0
"2017-02-22 14:27:51",449.0
"2017-02-22 14:27:53",629.0
"2017-02-22 14:27:56",329.0
"2017-02-22 14:27:57",246.0
"2017-02-22 14:28:00",571.0
"2017-02-22 14:28:01",383.0
"2017-02-22 14:28:02",292.0
"2017-02-22 14:28:03",399.0
"2017-02-22 14:28:11",494.0
"2017-02-22 14:28:13",192.0
"2017-02-22 14:28:14",109.0
"2017-02-22 14:28:15",472.0
"2017-02-22 14:28:16",501.0
"2017-02-22 14:28:17",208.0
"2017-02-22 14:28:19",650.0
"2017-02-22 14:28:20",68.0
"2017-02-23 12:52:43",476.0
"2017-02-23 12:52:44",228.0
"2017-02-23 12:52:46",173.0
"2017-02-23 12:52:47",546.0
"2017-02-23 12:52:50",292.0
"2017-02-23 12:52:51",300.0
"2017-02-23 12:52:52",658.0
"2017-02-23 12:52:53",283.0
"2017-02-23 12:53:00",187.0
"2017-02-23 12:53:01",276.0
"2017-02-23 12:53:03",357.0
"2017-02-23 12:53:06",583.0
"2017-02-23 12:53:07",423.0
"2017-02-23 12:53:08",199.0
"2017-02-23 12:53:09",281.0
"2017-02-23 12:53:13",275.0
"2017-02-23 12:53:14",369.0
"2017-02-23 12:53:16",507.0
"2017-02-23 12:53:17",619.0
"2017-02-23 12:53:25",658.0
"2017-02-23 12:53:26",548.0
"2017-02-23 12:53:27",551.0
"2017-02-23 12:53:28",361.0
"2017-02-23 12:53:42",479.0
"2017-02-23 12:53:44",582.0
"2017-02-23 12:53:46",672.0
"2017-02-23 12:53:47",567.0
"2017-02-23 12:53:50",442.0
"2017-02-23 12:53:55",725.0
"2017-02-23 12:53:56",634.0
"2017-02-23 12:53:58",399.0
"2017-02-23 12:54:00",302.0
"2017-02-23 12:54:02",650.0
"2017-02-23 12:54:03",565.0
"2017-02-23 12:54:15",469.0
"2017-02-23 12:54:16",598.0
"2017-02-23 12:54:17",592.0
"2017-02-23 12:55:33",698.0
"2017-02-23 12:57:09",710.0
"2017-02-23 12:57:11",628.0
"2017-02-23 12:57:12",589.0
"2017-02-23 12:57:13",712.0
"2017-02-23 12:59:57",166.0
"2017-02-23 12:59:58",400.0
"2017-02-23 12:59:59",535.0
"2017-02-23 13:00:00",623.0
"2017-02-23 13:01:54",533.0
"2017-02-23 13:01:55",504.0
"2017-02-23 13:01:56",610.0
"2017-02-23 13:02:05",500.0
"2017-02-23 13:02:10",647.0
"2017-02-23 13:02:36",381.0
"2017-02-23 13:02:38",624.0
"2017-02-23 13:03:34",505.0
"2017-02-23 13:03:35",377.0
"2017-02-23 13:03:37",598.0
"2017-02-23 13:04:08",499.0
"2017-02-23 13:04:09",410.0
"2017-02-23 13:04:11",291.0
"2017-02-23 13:04:28",493.0
"2017-02-23 13:04:48",612.0
"2017-02-23 13:04:53",715.0
"2017-02-23 13:04:55",533.0
"2017-02-23 13:04:56",409.0
"2017-02-23 13:04:57",632.0
"2017-02-23 13:05:32",528.0
"2017-02-23 13:05:33",497.0
"2017-02-23 13:05:34",393.0
"2017-02-23 13:05:38",308.0
"2017-02-23 13:05:44",633.0
"2017-02-23 13:05:45",719.0
"2017-02-23 13:06:11",600.0
"2017-02-23 13:06:12",371.0
"2017-02-23 13:06:14",532.0
"2017-02-23 13:06:22",617.0
"2017-02-23 13:06:51",558.0
"2017-02-23 13:06:52",657.0
"2017-02-23 13:08:09",470.0
"2017-02-23 13:08:10",211.0
"2017-02-23 13:08:12",321.0
"2017-02-23 13:08:13",415.0
"2017-02-23 13:08:52",235.0
"2017-02-23 13:08:54",333.0
"2017-02-23 13:09:10",420.0
"2017-02-23 13:09:11",281.0
"2017-02-23 13:09:15",364.0
"2017-02-23 13:09:21",482.0
"2017-02-23 13:09:22",407.0
"2017-02-23 13:09:25",319.0
"2017-02-23 13:09:30",412.0
"2017-02-23 13:09:32",624.0
"2017-02-23 13:09:34",499.0
"2017-02-23 13:09:36",583.0
"2017-02-23 13:09:38",323.0
"2017-02-23 13:09:39",186.0
"2017-02-23 13:09:41",455.0
"2017-02-23 13:09:45",332.0
"2017-02-23 13:09:46",712.0
"2017-02-23 13:10:06",613.0
"2017-02-23 13:10:10",703.0
"2017-02-23 13:10:47",566.0
"2017-02-23 13:10:48",538.0
"2017-02-23 13:10:50",688.0
"2017-02-23 13:10:51",709.0
"2017-02-23 13:10:58",594.0
"2017-02-23 13:11:01",709.0
"2017-02-23 13:11:51",624.0
"2017-02-23 13:11:52",265.0
"2017-02-23 13:11:53",183.0
"2017-02-23 13:11:54",350.0
"2017-02-23 13:12:21",257.0
"2017-02-23 13:12:22",660.0
"2017-02-23 13:12:54",538.0
"2017-02-23 13:12:55",328.0
"2017-02-23 13:12:56",238.0
"2017-02-23 13:12:57",350.0
"2017-02-23 13:13:19",195.0
"2017-02-23 13:13:20",311.0
"2017-02-23 13:13:21",637.0
"2017-02-23 13:13:22",384.0
"2017-02-23 13:13:31",303.0
"2017-02-23 13:13:33",437.0
"2017-02-23 13:13:34",743.0
"2017-02-23 13:13:36",624.0
"2017-02-23 13:13:37",462.0
"2017-02-23 13:13:41",469.0
"2017-02-23 13:13:42",753.0
"2017-02-23 13:14:20",282.0
"2017-02-23 13:14:21",169.0
"2017-02-23 13:14:22",703.0
"2017-02-23 13:14:38",694.0
"2017-02-23 13:14:39",797.0
"2017-02-23 13:15:41",593.0
"2017-02-23 13:15:42",395.0
"2017-02-23 13:15:44",189.0
"2017-02-23 13:15:45",380.0
"2017-02-23 13:15:51",150.0
"2017-02-23 13:15:52",607.0
"2017-02-23 13:15:53",1012.0
"2017-02-23 13:15:54",977.0
"2017-02-23 13:15:55",162.0
"2017-02-23 13:16:07",115.0
"2017-02-23 13:16:08",347.0
"2017-02-23 13:16:09",174.0
"2017-02-23 13:16:10",528.0
"2017-02-23 13:16:15",609.0
"2017-02-23 13:16:16",176.0
"2017-02-23 13:16:17",509.0
"2017-02-23 13:18:10",609.0
"2017-02-23 13:29:23",162.0
"2017-02-23 13:29:24",474.0
"2017-02-23 13:29:25",749.0
"2017-02-23 13:32:47",667.0
"2017-02-23 13:32:48",577.0
"2017-02-23 13:32:51",714.0
"2017-02-23 13:32:52",795.0
"2017-02-23 13:37:40",606.0
"2017-02-23 13:37:41",423.0
"2017-02-23 13:37:42",214.0
"2017-02-23 13:37:43",464.0
"2017-02-23 13:37:44",507.0
"2017-02-23 13:37:45",593.0
"2017-02-23 13:37:46",211.0
"2017-02-23 13:37:47",344.0
"2017-02-23 13:37:48",335.0
"2017-02-23 13:37:49",251.0
"2017-02-23 13:37:50",343.0
"2017-02-23 13:37:52",430.0
"2017-02-23 13:37:55",418.0
"2017-02-23 13:37:56",217.0
"2017-02-23 13:37:58",490.0
"2017-02-23 13:38:00",69.0
"2017-02-24 12:33:53",189.0
"2017-02-24 12:33:54",89.0
"2017-02-24 12:33:58",501.0
"2017-02-24 12:34:01",501.0
"2017-02-24 12:34:03",88.0
"2017-02-24 12:34:07",793.0
"2017-02-24 12:34:08",878.0
"2017-02-24 12:34:11",98.0
