"2017-01-30 08:21:31",0.005730742
"2017-01-30 08:24:22",0.0
"2017-01-30 12:53:27",6.129006e-05
"2017-01-30 12:55:04",0.010107915
"2017-01-30 12:56:41",0.0
"2017-01-30 14:56:34",0.00013705732
"2017-01-30 16:58:18",0.0
"2017-01-31 08:27:14",0.066856824
"2017-01-31 08:27:26",0.06698392
"2017-01-31 08:27:38",0.0
"2017-01-31 12:50:19",6.341847e-05
"2017-01-31 12:50:31",0.05646929
"2017-01-31 12:50:44",0.0
"2017-02-01 08:26:47",0.063195124
"2017-02-01 08:27:11",0.0
"2017-02-01 12:50:27",6.320463e-05
"2017-02-02 12:49:50",6.2209125e-05
"2017-02-02 12:51:03",0.015879638
"2017-02-02 12:52:04",0.0
"2017-02-03 12:20:53",6.942356e-05
"2017-02-03 12:21:05",0.07330468
"2017-02-03 12:21:17",0.0
"2017-02-03 12:23:07",0.008952563
"2017-02-03 12:24:57",0.0
"2017-02-06 08:22:40",0.051407397
"2017-02-06 08:23:05",0.0
"2017-02-06 08:23:17",0.030453503
"2017-02-06 08:23:53",0.0
"2017-02-06 12:51:19",6.220599e-05
"2017-02-06 12:51:31",0.052422173
"2017-02-06 12:51:56",0.05378328
"2017-02-06 12:52:08",0.0
"2017-02-07 08:22:22",0.063449405
"2017-02-07 08:22:46",0.06356165
"2017-02-07 08:22:59",0.06014651
"2017-02-07 08:23:11",0.0
"2017-02-07 12:53:16",6.165967e-05
"2017-02-07 12:53:40",0.057120446
"2017-02-07 12:53:52",0.057555374
"2017-02-07 12:54:05",0.0
"2017-02-07 14:56:47",0.00013552567
"2017-02-07 16:59:53",0.0
"2017-02-08 08:24:05",0.050628766
"2017-02-08 08:24:30",0.04128793
"2017-02-08 08:24:54",0.0
"2017-02-08 12:52:20",6.222701e-05
"2017-02-08 12:52:45",0.062821366
"2017-02-08 12:52:57",0.06249416
"2017-02-08 12:53:09",0.0
"2017-02-09 08:25:28",0.05711059
"2017-02-09 08:25:40",0.05740061
"2017-02-09 08:25:52",0.0
"2017-02-09 08:26:04",0.0490988
"2017-02-09 08:26:17",0.0
"2017-02-09 12:52:52",6.245586e-05
"2017-02-09 12:53:16",0.053562175
"2017-02-09 12:53:29",0.0
"2017-02-10 08:29:05",0.009655208
"2017-02-10 08:29:30",0.044809286
"2017-02-10 08:29:54",0.0
"2017-02-10 12:25:51",7.0470625e-05
"2017-02-10 12:26:16",0.056684688
"2017-02-10 12:26:28",0.057077464
"2017-02-10 12:26:52",0.0
"2017-02-10 12:28:17",0.009863094
"2017-02-10 12:28:30",0.046195835
"2017-02-10 12:28:54",0.0
"2017-02-10 15:44:54",8.489178e-05
"2017-02-10 15:45:06",0.077374265
"2017-02-10 15:45:18",0.0
"2017-02-13 08:26:32",0.05220744
"2017-02-13 08:26:56",0.0
"2017-02-13 13:18:53",5.7042645e-05
"2017-02-13 13:20:06",0.0131363785
"2017-02-13 13:20:18",0.055649906
"2017-02-13 13:20:43",0.05630724
"2017-02-13 13:20:55",0.0
"2017-02-14 08:51:13",0.05186706
"2017-02-14 08:51:37",0.0
"2017-02-14 13:22:30",6.1428545e-05
"2017-02-14 13:24:08",0.010382125
"2017-02-14 13:24:32",0.054886945
"2017-02-14 13:24:44",0.0
"2017-02-15 08:35:43",0.015087091
"2017-02-15 08:35:55",0.048520386
"2017-02-15 08:36:19",0.0
"2017-02-15 12:58:28",6.3509884e-05
"2017-02-15 12:58:40",0.061155323
"2017-02-15 12:59:04",0.057869557
"2017-02-15 12:59:16",0.0
"2017-02-16 08:23:22",0.07433656
"2017-02-16 08:23:34",0.07386352
"2017-02-16 08:23:46",0.0
"2017-02-16 08:23:59",0.046188805
"2017-02-16 08:24:23",0.0
"2017-02-16 12:53:50",6.1760045e-05
"2017-02-16 12:54:02",0.053382423
"2017-02-16 12:54:27",0.053668234
"2017-02-16 12:54:39",0.0
"2017-02-16 15:42:34",9.918552e-05
"2017-02-17 08:23:05",0.071830824
"2017-02-17 08:23:18",0.07262347
"2017-02-17 08:23:30",0.0
"2017-02-17 08:23:42",0.052112043
"2017-02-17 08:23:54",0.0
"2017-02-17 12:22:06",6.991573e-05
"2017-02-17 12:22:18",0.065674044
"2017-02-17 12:22:30",0.06354575
"2017-02-17 12:22:43",0.0
"2017-02-17 12:25:46",0.005243062
"2017-02-17 12:28:49",0.0
"2017-02-20 12:49:26",0.057929303
"2017-02-20 12:49:39",0.057997692
"2017-02-20 12:50:03",0.0
"2017-02-21 08:26:14",0.058256812
"2017-02-21 08:26:26",0.058170766
"2017-02-21 08:26:50",0.0
"2017-02-21 14:13:16",4.805451e-05
"2017-02-22 08:29:03",0.079145744
"2017-02-22 08:29:15",0.06806785
"2017-02-22 08:29:27",0.0
"2017-02-22 13:00:08",6.151632e-05
"2017-02-22 13:01:58",0.00911942
"2017-02-22 13:02:10",0.058088787
"2017-02-22 13:02:35",0.0
"2017-02-23 08:46:18",0.053445373
"2017-02-23 08:46:42",0.05386373
"2017-02-23 08:46:55",0.04808612
"2017-02-23 08:47:19",0.0
"2017-02-23 12:50:24",6.844458e-05
"2017-02-23 12:50:49",0.055197414
"2017-02-23 12:51:01",0.0
"2017-02-24 08:30:12",0.051628437
"2017-02-24 08:30:24",0.051919244
"2017-02-24 08:30:49",0.0
"2017-02-24 12:29:12",6.9845904e-05
"2017-02-24 12:29:24",0.05560675
"2017-02-24 12:29:48",0.052842747
"2017-02-24 12:30:01",0.0
"2017-02-24 12:31:51",0.00804222
"2017-02-24 12:32:03",0.07386502
"2017-02-24 12:32:15",0.0
